…
  # antimicrobial selectors:
  select(bacteria,
         aminoglycosides(),
         carbapenems())
#> ℹ Using column mo as input for `mo_fullname()`
#> ℹ Using column mo as input for `mo_is_gram_negative()`
#> ℹ Using column mo as input for `mo_is_intrinsic_resistant()`
#> ℹ Determining intrinsic resistance based on 'EUCAST Expected
#>   Resistant Phenotypes' v1.2 (2023). This note will be shown
#>   once per session.
#> ℹ For `aminoglycosides()` using columns GEN (gentamicin), TOB
#>   (tobramycin), AMK (amikacin), and KAN (kanamycin)
#> ℹ For `carbapenems()` using columns IPM (imipenem) and MEM
#>   (meropenem)
#> # A tibble: 35 × 7
#>    bacteria                     GEN   TOB   AMK   KAN   IPM   MEM  
#>    <chr>                        <sir> <sir> <sir> <sir> <sir> <sir>
#>  1 Pseudomonas aeruginosa       I     S     NA    R     S     NA   
#>  2 Pseudomonas aeruginosa       I     S     NA    R     S     NA   
#>  3 Pseudomonas aeruginosa       I     S     NA    R     S     NA   
#>  4 Pseudomonas aeruginosa       S     S     S     R     NA    S    
#>  5 Pseudomonas aeruginosa       S     S     S     R     S     S    
#>  6 Pseudomonas aeruginosa       S     S     S     R     S     S    
#>  7 Stenotrophomonas maltophilia R     R     R     R     R     R    
#>  8 Pseudomonas aeruginosa       S     S     S     R     NA    S    
#>  9 Pseudomonas aeruginosa       S     S     S     R     NA    S    
#> 10 Pseudomonas aeruginosa       S     S     S     R     S     S    
#> # ℹ 25 more rows
```
…
