Antibiotic Selectors — antibiotic_class_selectors • AMR (for R)
…
    Examples

# `example_isolates` is a data set available in the AMR package.
# See ?example_isolates.
df <- example_isolates[ , c("hospital_id", "mo",
                            "AMP", "AMC", "TZP", "CXM", "CRO", "GEN",
                            "TOB", "COL", "IPM", "MEM", "TEC", "VAN")]

# base R ------------------------------------------------------------------

# select columns 'IPM' (imipenem) and 'MEM' (meropenem)
df[, carbapenems()]
#> ℹ For `carbapenems()` using columns 'IPM' (imipenem) and 'MEM' (meropenem)
#> # A tibble: 2,000 × 2
#>    IPM   MEM  
#>    <rsi> <rsi>
#>  1 NA    NA   
#>  2 NA    NA   
#>  3 NA    NA   
#>  4 NA    NA   
#>  5 NA    NA   
#>  6 NA    NA   
#>  7 NA    NA   
#>  8 NA    NA   
#>  9 NA    NA   
#> 10 NA    NA   
#> # … with 1,990 more rows

# select columns 'mo', 'AMK', 'GEN', 'KAN' and 'TOB'
df[, c("mo", aminoglycosides())]
#> ℹ For `aminoglycosides()` using columns 'GEN' (gentamicin) and 'TOB'
#>   (tobramycin)
#> # A tibble: 2,000 × 3
#>    mo           GEN   TOB  
#>    <mo>         <rsi> <rsi>
#>  1 B_ESCHR_COLI NA    NA   
#>  2 B_ESCHR_COLI NA    NA   
#>  3 B_STPHY_EPDR NA    NA   
#>  4 B_STPHY_EPDR NA    NA   
#>  5 B_STPHY_EPDR NA    NA   
#>  6 B_STPHY_EPDR NA    NA   
#>  7 B_STPHY_AURS NA    S    
#>  8 B_STPHY_AURS NA    S    
#>  9 B_STPHY_EPDR NA    NA   
#> 10 B_STPHY_EPDR NA    NA   
#> # … with 1,990 more rows

# select only antibiotic columns with DDDs for oral treatment
df[, administrable_per_os()]
#> ℹ For `administrable_per_os()` using columns 'AMP' (ampicillin), 'AMC'
#>   (amoxicillin/clavulanic acid), 'CXM' (cefuroxime), 'COL' (colistin) and
#>   'VAN' (vancomycin)
#> # A tibble: 2,000 × 5
#>    AMP   AMC   CXM   COL   VAN  
#>    <rsi> <rsi> <rsi> <rsi> <rsi>
#>  1 NA    I     I     NA    R    
#>  2 NA    I     I     NA    R    
#>  3 NA    NA    R     R     S    
#>  4 NA    NA    R     R     S    
#>  5 NA    NA    R     R     S    
#>  6 NA    NA    R     R     S    
#>  7 R     S     S     R     S    
#>  8 R     S     S     R     S    
#>  9 NA    NA    R     R     S    
#> 10 NA    NA    S     R     S    
#> # … with 1,990 more rows

# filter using any() or all()
df[any(carbapenems() == "R"), ]
#> ℹ For `carbapenems()` using columns 'IPM' (imipenem) and 'MEM' (meropenem)
#> # A tibble: 55 × 14
#>    hospital…¹ mo           AMP   AMC   TZP   CXM   CRO   GEN   TOB   COL   IPM  
#>    <fct>      <mo>         <rsi> <rsi> <rsi> <rsi> <rsi> <rsi> <rsi> <rsi> <rsi>
#>  1 A          B_ENTRC_FACM NA    NA    NA    R     R     R     R     R     R    
#>  2 A          B_ENTRC_FACM NA    NA    NA    R     R     R     R     R     R    
#>  3 B          B_STNTR_MLTP R     R     R     R     R     R     R     R     R    
#>  4 B          B_ENTRC      NA    NA    R     NA    NA    NA    NA    R     R    
#>  5 B          B_ENTRC      NA    NA    R     NA    NA    NA    NA    R     R    
#>  6 B          B_ENTRC_FACM NA    NA    R     R     R     R     R     R     R    
#>  7 D          B_ENTRC_FACM NA    NA    R     R     R     R     R     R     R    
#>  8 A          B_ENTRC_FACM NA    NA    R     R     R     R     R     R     R    
#>  9 A          B_PROTS_MRBL NA    S     S     S     S     S     S     R     R    
#> 10 A          B_PROTS_MRBL NA    S     S     S     S     S     S     R     R    
#> # … with 45 more rows, 3 more variables: MEM <rsi>, TEC <rsi>, VAN <rsi>, and
#> #   abbreviated variable name ¹​hospital_id
subset(df, any(carbapenems() == "R"))
#> ℹ For `carbapenems()` using columns 'IPM' (imipenem) and 'MEM' (meropenem)
#> # A tibble: 55 × 14
#>    hospital…¹ mo           AMP   AMC   TZP   CXM   CRO   GEN   TOB   COL   IPM  
#>    <fct>      <mo>         <rsi> <rsi> <rsi> <rsi> <rsi> <rsi> <rsi> <rsi> <rsi>
#>  1 A          B_ENTRC_FACM NA    NA    NA    R     R     R     R     R     R    
#>  2 A          B_ENTRC_FACM NA    NA    NA    R     R     R     R     R     R    
#>  3 B          B_STNTR_MLTP R     R     R     R     R     R     R     R     R    
#>  4 B          B_ENTRC      NA    NA    R     NA    NA    NA    NA    R     R    
#>  5 B          B_ENTRC      NA    NA    R     NA    NA    NA    NA    R     R    
#>  6 B          B_ENTRC_FACM NA    NA    R     R     R     R     R     R     R    
#>  7 D          B_ENTRC_FACM NA    NA    R     R     R     R     R     R     R    
#>  8 A          B_ENTRC_FACM NA    NA    R     R     R     R     R     R     R    
#>  9 A          B_PROTS_MRBL NA    S     S     S     S     S     S     R     R    
#> 10 A          B_PROTS_MRBL NA    S     S     S     S     S     S     R     R    
#> # … with 45 more rows, 3 more variables: MEM <rsi>, TEC <rsi>, VAN <rsi>, and
#> #   abbreviated variable name ¹​hospital_id

# filter on any or all results in the carbapenem columns (i.e., IPM, MEM):
df[any(carbapenems()), ]
#> ℹ For `carbapenems()` using columns 'IPM' (imipenem) and 'MEM' (meropenem)
#> ℹ Filtering any of columns 'IPM' and 'MEM' to contain value "R", "S" or "I"
#> # A tibble: 962 × 14
#>    hospital…¹ mo           AMP   AMC   TZP   CXM   CRO   GEN   TOB   COL   IPM  
#>    <fct>      <mo>         <rsi> <rsi> <rsi> <rsi> <rsi> <rsi> <rsi> <rsi> <rsi>
#>  1 D          B_ESCHR_COLI NA    I     NA    S     S     NA    S     NA    S    
#>  2 D          B_ESCHR_COLI NA    I     NA    S     S     NA    S     NA    S    
#>  3 B          B_PROTS_MRBL NA    I     NA    S     S     NA    NA    R     S    
#>  4 B          B_PROTS_MRBL NA    I     NA    S     S     NA    NA    R     S    
#>  5 B          B_SERRT_MRCS R     R     NA    R     NA    NA    NA    R     S    
#>  6 B          B_SERRT_MRCS R     R     NA    R     NA    NA    NA    R     S    
#>  7 B          B_SERRT_MRCS R     R     NA    R     NA    NA    NA    R     S    
#>  8 D          B_KLBSL_PNMN R     I     NA    S     S     S     S     NA    S    
#>  9 D          B_KLBSL_PNMN R     I     NA    S     S     S     S     NA    S    
#> 10 C          B_ESCHR_COLI R     R     NA    R     S     S     NA    NA    S    
#> # … with 952 more rows, 3 more variables: MEM <rsi>, TEC <rsi>, VAN <rsi>, and
#> #   abbreviated variable name ¹​hospital_id
df[all(carbapenems()), ]
#> ℹ For `carbapenems()` using columns 'IPM' (imipenem) and 'MEM' (meropenem)
#> ℹ Filtering all of columns 'IPM' and 'MEM' to contain value "R", "S" or "I"
#> # A tibble: 756 × 14
#>    hospita…¹ mo            AMP   AMC   TZP   CXM   CRO   GEN   TOB   COL   IPM  
#>    <fct>     <mo>          <rsi> <rsi> <rsi> <rsi> <rsi> <rsi> <rsi> <rsi> <rsi>
#>  1 C         B_STRPT_GRPB  S     S     S     S     S     R     R     R     S    
#>  2 B         B_STRPT_PYGN  S     S     S     S     S     R     R     R     S    
#>  3 B         B_STRPT_GRPA  S     S     S     S     S     R     R     R     S    
#>  4 B         B_STRPT_GRPA  S     S     S     S     S     R     R     R     S    
#>  5 D         B_STRPT_GRPB  S     S     S     S     S     R     R     R     S    
#>  6 B         B_ESCHR_COLI  R     R     S     S     S     S     S     NA    S    
#>  7 B         B_ENTRBC_CLOC R     R     S     R     NA    S     S     NA    S    
#>  8 B         B_ENTRBC_CLOC R     R     S     R     NA    S     S     NA    S    
#>  9 B         B_ESCHR_COLI  NA    S     S     S     S     S     S     NA    S    
#> 10 B         B_ESCHR_COLI  NA    S     S     S     S     S     S     NA    S    
#> # … with 746 more rows, 3 more variables: MEM <rsi>, TEC <rsi>, VAN <rsi>, and
#> #   abbreviated variable name ¹​hospital_id

# filter with multiple antibiotic selectors using c()
df[all(c(carbapenems(), aminoglycosides()) == "R"), ]
#> ℹ For `carbapenems()` using columns 'IPM' (imipenem) and 'MEM' (meropenem)
#> ℹ For `aminoglycosides()` using columns 'GEN' (gentamicin) and 'TOB'
#>   (tobramycin)
#> # A tibble: 26 × 14
#>    hospital…¹ mo           AMP   AMC   TZP   CXM   CRO   GEN   TOB   COL   IPM  
#>    <fct>      <mo>         <rsi> <rsi> <rsi> <rsi> <rsi> <rsi> <rsi> <rsi> <rsi>
#>  1 B          B_STNTR_MLTP R     R     R     R     R     R     R     R     R    
#>  2 B          B_ENTRC_FACM NA    NA    R     R     R     R     R     R     R    
#>  3 D          B_ENTRC_FACM NA    NA    R     R     R     R     R     R     R    
#>  4 A          B_ENTRC_FACM NA    NA    R     R     R     R     R     R     R    
#>  5 D          B_STNTR_MLTP R     R     R     R     R     R     R     R     R    
#>  6 D          B_ENTRC_FACM NA    NA    R     R     R     R     R     R     R    
#>  7 B          B_STPHY_CONS R     R     R     R     R     R     R     R     R    
#>  8 A          B_STPHY_CONS R     R     R     R     R     R     R     R     R    
#>  9 D          B_STPHY_CONS R     R     R     R     R     R     R     R     R    
#> 10 D          B_STPHY_CONS R     R     R     R     R     R     R     R     R    
#> # … with 16 more rows, 3 more variables: MEM <rsi>, TEC <rsi>, VAN <rsi>, and
#> #   abbreviated variable name ¹​hospital_id

# filter + select in one go: get penicillins in carbapenems-resistant strains
df[any(carbapenems() == "R"), penicillins()]
#> ℹ For `carbapenems()` using columns 'IPM' (imipenem) and 'MEM' (meropenem)
#> ℹ For `penicillins()` using columns 'AMP' (ampicillin), 'AMC'
#>   (amoxicillin/clavulanic acid) and 'TZP' (piperacillin/tazobactam)
#> # A tibble: 55 × 3
#>    AMP   AMC   TZP  
#>    <rsi> <rsi> <rsi>
#>  1 NA    NA    NA   
#>  2 NA    NA    NA   
#>  3 R     R     R    
#>  4 NA    NA    R    
#>  5 NA    NA    R    
#>  6 NA    NA    R    
#>  7 NA    NA    R    
#>  8 NA    NA    R    
#>  9 NA    S     S    
#> 10 NA    S     S    
#> # … with 45 more rows

# You can combine selectors with '&' to be more specific. For example,
# penicillins() would select benzylpenicillin ('peni G') and
# administrable_per_os() would select erythromycin. Yet, when combined these
# drugs are both omitted since benzylpenicillin is not administrable per os
# and erythromycin is not a penicillin:
df[, penicillins() & administrable_per_os()]
#> ℹ For `penicillins()` using columns 'AMP' (ampicillin), 'AMC'
#>   (amoxicillin/clavulanic acid) and 'TZP' (piperacillin/tazobactam)
#> ℹ For `administrable_per_os()` using columns 'AMP' (ampicillin), 'AMC'
#>   (amoxicillin/clavulanic acid), 'CXM' (cefuroxime), 'COL' (colistin) and
#>   'VAN' (vancomycin)
#> # A tibble: 2,000 × 2
#>    AMP   AMC  
#>    <rsi> <rsi>
#>  1 NA    I    
#>  2 NA    I    
#>  3 NA    NA   
#>  4 NA    NA   
#>  5 NA    NA   
#>  6 NA    NA   
#>  7 R     S    
#>  8 R     S    
#>  9 NA    NA   
#> 10 NA    NA   
#> # … with 1,990 more rows

# ab_selector() applies a filter in the `antibiotics` data set and is thus very
# flexible. For instance, to select antibiotic columns with an oral DDD of at
# least 1 gram:
df[, ab_selector(oral_ddd > 1 & oral_units == "g")]
#> ℹ For `ab_selector(oral_ddd > 1 & oral_units == "g")` using columns 'AMP'
#>   (ampicillin), 'AMC' (amoxicillin/clavulanic acid) and 'VAN' (vancomycin)
#> # A tibble: 2,000 × 3
#>    AMP   AMC   VAN  
#>    <rsi> <rsi> <rsi>
#>  1 NA    I     R    
#>  2 NA    I     R    
#>  3 NA    NA    S    
#>  4 NA    NA    S    
#>  5 NA    NA    S    
#>  6 NA    NA    S    
#>  7 R     S     S    
#>  8 R     S     S    
#>  9 NA    NA    S    
#> 10 NA    NA    S    
#> # … with 1,990 more rows
…
