…
Visit [our website for direct download
links](https://amr-for-r.org/articles/datasets.html), or explore the
actual files in [our GitHub
repository](https://github.com/msberends/AMR/tree/main/data-raw/datasets).

## Examples

``` r
# `example_isolates` is a data set available in the AMR package.
# See ?example_isolates.
example_isolates
#> # A tibble: 2,000 × 46
#>    date       patient   age gender ward     mo           PEN   OXA   FLC   AMX  
#>    <date>     <chr>   <dbl> <chr>  <chr>    <mo>         <sir> <sir> <sir> <sir>
#>  1 2002-01-02 A77334     65 F      Clinical B_ESCHR_COLI   R     NA    NA    NA 
#>  2 2002-01-03 A77334     65 F      Clinical B_ESCHR_COLI   R     NA    NA    NA 
#>  3 2002-01-07 067927     45 F      ICU      B_STPHY_EPDR   R     NA    R     NA 
#>  4 2002-01-07 067927     45 F      ICU      B_STPHY_EPDR   R     NA    R     NA 
#>  5 2002-01-13 067927     45 F      ICU      B_STPHY_EPDR   R     NA    R     NA 
#>  6 2002-01-13 067927     45 F      ICU      B_STPHY_EPDR   R     NA    R     NA 
#>  7 2002-01-14 462729     78 M      Clinical B_STPHY_AURS   R     NA    S     R  
#>  8 2002-01-14 462729     78 M      Clinical B_STPHY_AURS   R     NA    S     R  
#>  9 2002-01-16 067927     45 F      ICU      B_STPHY_EPDR   R     NA    R     NA 
#> 10 2002-01-17 858515     79 F      ICU      B_STPHY_EPDR   R     NA    S     NA 
#> # ℹ 1,990 more rows
#> # ℹ 36 more variables: AMC <sir>, AMP <sir>, TZP <sir>, CZO <sir>, FEP <sir>,
#> #   CXM <sir>, FOX <sir>, CTX <sir>, CAZ <sir>, CRO <sir>, GEN <sir>,
#> #   TOB <sir>, AMK <sir>, KAN <sir>, TMP <sir>, SXT <sir>, NIT <sir>,
#> #   FOS <sir>, LNZ <sir>, CIP <sir>, MFX <sir>, VAN <sir>, TEC <sir>,
#> #   TCY <sir>, TGC <sir>, DOX <sir>, ERY <sir>, CLI <sir>, AZM <sir>,
#> #   IPM <sir>, MEM <sir>, MTR <sir>, CHL <sir>, COL <sir>, MUP <sir>, …
…
# with recent versions of dplyr, this is all equal:
x <- example_isolates[carbapenems() == "R", ]
y <- example_isolates %>% filter(carbapenems() == "R")
z <- example_isolates %>% filter(if_all(carbapenems(), ~ .x == "R"))
identical(x, y) && identical(y, z)

} # }
# base R ------------------------------------------------------------------

# select columns 'IPM' (imipenem) and 'MEM' (meropenem)
example_isolates[, carbapenems()]
#> ℹ For `carbapenems()` using columns 'IPM' (imipenem) and 'MEM' (meropenem)
#> # A tibble: 2,000 × 2
#>    IPM   MEM  
#>    <sir> <sir>
#>  1   NA    NA 
#>  2   NA    NA 
#>  3   NA    NA 
#>  4   NA    NA 
#>  5   NA    NA 
#>  6   NA    NA 
#>  7   NA    NA 
#>  8   NA    NA 
#>  9   NA    NA 
#> 10   NA    NA 
#> # ℹ 1,990 more rows

# select columns 'mo', 'AMK', 'GEN', 'KAN' and 'TOB'
example_isolates[, c("mo", aminoglycosides())]
#> ℹ For `aminoglycosides()` using columns 'GEN' (gentamicin), 'TOB'
#>   (tobramycin), 'AMK' (amikacin), and 'KAN' (kanamycin)
#> # A tibble: 2,000 × 5
#>    mo           GEN   TOB   AMK   KAN  
#>    <mo>         <sir> <sir> <sir> <sir>
#>  1 B_ESCHR_COLI   NA    NA    NA    NA 
#>  2 B_ESCHR_COLI   NA    NA    NA    NA 
#>  3 B_STPHY_EPDR   NA    NA    NA    NA 
#>  4 B_STPHY_EPDR   NA    NA    NA    NA 
#>  5 B_STPHY_EPDR   NA    NA    NA    NA 
#>  6 B_STPHY_EPDR   NA    NA    NA    NA 
#>  7 B_STPHY_AURS   NA    S     NA    NA 
#>  8 B_STPHY_AURS   NA    S     NA    NA 
#>  9 B_STPHY_EPDR   NA    NA    NA    NA 
#> 10 B_STPHY_EPDR   NA    NA    NA    NA 
#> # ℹ 1,990 more rows

# select only antimicrobials with DDDs for oral treatment
example_isolates[, administrable_per_os()]
#> ℹ For `administrable_per_os()` using columns 'OXA' (oxacillin), 'FLC'
#>   (flucloxacillin), 'AMX' (amoxicillin), 'AMC' (amoxicillin/clavulanic acid),
#>   'AMP' (ampicillin), 'CXM' (cefuroxime), 'KAN' (kanamycin), 'TMP'
#>   (trimethoprim), 'NIT' (nitrofurantoin), 'FOS' (fosfomycin), 'LNZ'
#>   (linezolid), 'CIP' (ciprofloxacin), 'MFX' (moxifloxacin), 'VAN'
#>   (vancomycin), 'TCY' (tetracycline), 'DOX' (doxycycline), 'ERY'
#>   (erythromycin), 'CLI' (clindamycin), 'AZM' (azithromycin), 'MTR'
#>   (metronidazole), 'CHL' (chloramphenicol), 'COL' (colistin), and 'RIF'
#>   (rifampicin)
#> # A tibble: 2,000 × 23
#>    OXA   FLC   AMX   AMC   AMP   CXM   KAN   TMP   NIT   FOS   LNZ   CIP   MFX  
#>    <sir> <sir> <sir> <sir> <sir> <sir> <sir> <sir> <sir> <sir> <sir> <sir> <sir>
#>  1   NA    NA    NA    I     NA    I     NA    R     NA    NA    R     NA    NA 
#>  2   NA    NA    NA    I     NA    I     NA    R     NA    NA    R     NA    NA 
#>  3   NA    R     NA    NA    NA    R     NA    S     NA    NA    NA    NA    NA 
#>  4   NA    R     NA    NA    NA    R     NA    S     NA    NA    NA    NA    NA 
#>  5   NA    R     NA    NA    NA    R     NA    R     NA    NA    NA    NA    NA 
#>  6   NA    R     NA    NA    NA    R     NA    R     NA    NA    NA    NA    NA 
#>  7   NA    S     R     S     R     S     NA    R     NA    NA    NA    NA    NA 
#>  8   NA    S     R     S     R     S     NA    R     NA    NA    NA    NA    NA 
#>  9   NA    R     NA    NA    NA    R     NA    S     NA    NA    NA    S     NA 
#> 10   NA    S     NA    NA    NA    S     NA    S     NA    NA    NA    S     NA 
#> # ℹ 1,990 more rows
#> # ℹ 10 more variables: VAN <sir>, TCY <sir>, DOX <sir>, ERY <sir>, CLI <sir>,
#> #   AZM <sir>, MTR <sir>, CHL <sir>, COL <sir>, RIF <sir>

# filter using any() or all()
example_isolates[any(carbapenems() == "R"), ]
#> ℹ For `carbapenems()` using columns 'IPM' (imipenem) and 'MEM' (meropenem)
#> # A tibble: 55 × 46
#>    date       patient   age gender ward     mo           PEN   OXA   FLC   AMX  
#>    <date>     <chr>   <dbl> <chr>  <chr>    <mo>         <sir> <sir> <sir> <sir>
#>  1 2004-06-09 529296     69 M      ICU      B_ENTRC_FACM   NA    NA    NA    NA 
#>  2 2004-06-09 529296     69 M      ICU      B_ENTRC_FACM   NA    NA    NA    NA 
#>  3 2004-11-03 D65308     80 F      ICU      B_STNTR_MLTP   R     NA    NA    R  
#>  4 2005-04-21 452212     82 F      ICU      B_ENTRC        NA    NA    NA    NA 
#>  5 2005-04-22 452212     82 F      ICU      B_ENTRC        NA    NA    NA    NA 
#>  6 2005-04-22 452212     82 F      ICU      B_ENTRC_FACM   NA    NA    NA    NA 
#>  7 2007-02-21 8BBC46     61 F      Clinical B_ENTRC_FACM   NA    NA    NA    NA 
#>  8 2007-12-15 401043     72 M      Clinical B_ENTRC_FACM   NA    NA    NA    NA 
#>  9 2008-01-22 1710B8     82 M      Clinical B_PROTS_MRBL   R     NA    NA    NA 
#> 10 2008-01-22 1710B8     82 M      Clinical B_PROTS_MRBL   R     NA    NA    NA 
#> # ℹ 45 more rows
#> # ℹ 36 more variables: AMC <sir>, AMP <sir>, TZP <sir>, CZO <sir>, FEP <sir>,
#> #   CXM <sir>, FOX <sir>, CTX <sir>, CAZ <sir>, CRO <sir>, GEN <sir>,
#> #   TOB <sir>, AMK <sir>, KAN <sir>, TMP <sir>, SXT <sir>, NIT <sir>,
#> #   FOS <sir>, LNZ <sir>, CIP <sir>, MFX <sir>, VAN <sir>, TEC <sir>,
#> #   TCY <sir>, TGC <sir>, DOX <sir>, ERY <sir>, CLI <sir>, AZM <sir>,
#> #   IPM <sir>, MEM <sir>, MTR <sir>, CHL <sir>, COL <sir>, MUP <sir>, …
subset(example_isolates, any(carbapenems() == "R"))
#> ℹ For `carbapenems()` using columns 'IPM' (imipenem) and 'MEM' (meropenem)
#> # A tibble: 55 × 46
#>    date       patient   age gender ward     mo           PEN   OXA   FLC   AMX  
#>    <date>     <chr>   <dbl> <chr>  <chr>    <mo>         <sir> <sir> <sir> <sir>
#>  1 2004-06-09 529296     69 M      ICU      B_ENTRC_FACM   NA    NA    NA    NA 
#>  2 2004-06-09 529296     69 M      ICU      B_ENTRC_FACM   NA    NA    NA    NA 
#>  3 2004-11-03 D65308     80 F      ICU      B_STNTR_MLTP   R     NA    NA    R  
#>  4 2005-04-21 452212     82 F      ICU      B_ENTRC        NA    NA    NA    NA 
#>  5 2005-04-22 452212     82 F      ICU      B_ENTRC        NA    NA    NA    NA 
#>  6 2005-04-22 452212     82 F      ICU      B_ENTRC_FACM   NA    NA    NA    NA 
#>  7 2007-02-21 8BBC46     61 F      Clinical B_ENTRC_FACM   NA    NA    NA    NA 
#>  8 2007-12-15 401043     72 M      Clinical B_ENTRC_FACM   NA    NA    NA    NA 
#>  9 2008-01-22 1710B8     82 M      Clinical B_PROTS_MRBL   R     NA    NA    NA 
#> 10 2008-01-22 1710B8     82 M      Clinical B_PROTS_MRBL   R     NA    NA    NA 
#> # ℹ 45 more rows
#> # ℹ 36 more variables: AMC <sir>, AMP <sir>, TZP <sir>, CZO <sir>, FEP <sir>,
#> #   CXM <sir>, FOX <sir>, CTX <sir>, CAZ <sir>, CRO <sir>, GEN <sir>,
#> #   TOB <sir>, AMK <sir>, KAN <sir>, TMP <sir>, SXT <sir>, NIT <sir>,
#> #   FOS <sir>, LNZ <sir>, CIP <sir>, MFX <sir>, VAN <sir>, TEC <sir>,
#> #   TCY <sir>, TGC <sir>, DOX <sir>, ERY <sir>, CLI <sir>, AZM <sir>,
#> #   IPM <sir>, MEM <sir>, MTR <sir>, CHL <sir>, COL <sir>, MUP <sir>, …

# filter on any or all results in the carbapenem columns (i.e., IPM, MEM):
example_isolates[any(carbapenems()), ]
#> ℹ For `carbapenems()` using columns 'IPM' (imipenem) and 'MEM' (meropenem)
#> ℹ Filtering any of columns 'IPM' and 'MEM' to contain value "S", "I" or "R"
#> # A tibble: 962 × 46
#>    date       patient   age gender ward     mo           PEN   OXA   FLC   AMX  
#>    <date>     <chr>   <dbl> <chr>  <chr>    <mo>         <sir> <sir> <sir> <sir>
#>  1 2002-01-19 738003     71 M      Clinical B_ESCHR_COLI   R     NA    NA    NA 
#>  2 2002-01-19 738003     71 M      Clinical B_ESCHR_COLI   R     NA    NA    NA 
#>  3 2002-01-22 F35553     50 M      ICU      B_PROTS_MRBL   R     NA    NA    NA 
#>  4 2002-01-22 F35553     50 M      ICU      B_PROTS_MRBL   R     NA    NA    NA 
#>  5 2002-02-05 067927     45 F      ICU      B_SERRT_MRCS   R     NA    NA    R  
#>  6 2002-02-05 067927     45 F      ICU      B_SERRT_MRCS   R     NA    NA    R  
#>  7 2002-02-05 067927     45 F      ICU      B_SERRT_MRCS   R     NA    NA    R  
#>  8 2002-02-27 066895     85 F      Clinical B_KLBSL_PNMN   R     NA    NA    R  
#>  9 2002-02-27 066895     85 F      Clinical B_KLBSL_PNMN   R     NA    NA    R  
#> 10 2002-03-08 4FC193     69 M      Clinical B_ESCHR_COLI   R     NA    NA    R  
#> # ℹ 952 more rows
#> # ℹ 36 more variables: AMC <sir>, AMP <sir>, TZP <sir>, CZO <sir>, FEP <sir>,
#> #   CXM <sir>, FOX <sir>, CTX <sir>, CAZ <sir>, CRO <sir>, GEN <sir>,
#> #   TOB <sir>, AMK <sir>, KAN <sir>, TMP <sir>, SXT <sir>, NIT <sir>,
#> #   FOS <sir>, LNZ <sir>, CIP <sir>, MFX <sir>, VAN <sir>, TEC <sir>,
#> #   TCY <sir>, TGC <sir>, DOX <sir>, ERY <sir>, CLI <sir>, AZM <sir>,
#> #   IPM <sir>, MEM <sir>, MTR <sir>, CHL <sir>, COL <sir>, MUP <sir>, …
example_isolates[all(carbapenems()), ]
#> ℹ For `carbapenems()` using columns 'IPM' (imipenem) and 'MEM' (meropenem)
#> ℹ Filtering all of columns 'IPM' and 'MEM' to contain value "S", "I" or "R"
#> # A tibble: 756 × 46
#>    date       patient   age gender ward    mo            PEN   OXA   FLC   AMX  
#>    <date>     <chr>   <dbl> <chr>  <chr>   <mo>          <sir> <sir> <sir> <sir>
#>  1 2002-04-14 F30196     73 M      Outpat… B_STRPT_GRPB    S     NA    S     S  
#>  2 2003-04-08 114570     74 M      ICU     B_STRPT_PYGN    S     NA    S     S  
#>  3 2003-04-08 114570     74 M      ICU     B_STRPT_GRPA    S     NA    S     S  
#>  4 2003-04-08 114570     74 M      ICU     B_STRPT_GRPA    S     NA    S     S  
#>  5 2003-08-14 F71508      0 F      Clinic… B_STRPT_GRPB    S     NA    S     S  
#>  6 2003-10-16 650870     63 F      ICU     B_ESCHR_COLI    R     NA    NA    R  
#>  7 2003-10-20 F35553     52 M      ICU     B_ENTRBC_CLOC   R     NA    NA    R  
#>  8 2003-10-20 F35553     52 M      ICU     B_ENTRBC_CLOC   R     NA    NA    R  
#>  9 2003-11-04 2FC253     87 F      ICU     B_ESCHR_COLI    R     NA    NA    NA 
#> 10 2003-11-04 2FC253     87 F      ICU     B_ESCHR_COLI    R     NA    NA    NA 
#> # ℹ 746 more rows
#> # ℹ 36 more variables: AMC <sir>, AMP <sir>, TZP <sir>, CZO <sir>, FEP <sir>,
#> #   CXM <sir>, FOX <sir>, CTX <sir>, CAZ <sir>, CRO <sir>, GEN <sir>,
#> #   TOB <sir>, AMK <sir>, KAN <sir>, TMP <sir>, SXT <sir>, NIT <sir>,
#> #   FOS <sir>, LNZ <sir>, CIP <sir>, MFX <sir>, VAN <sir>, TEC <sir>,
#> #   TCY <sir>, TGC <sir>, DOX <sir>, ERY <sir>, CLI <sir>, AZM <sir>,
#> #   IPM <sir>, MEM <sir>, MTR <sir>, CHL <sir>, COL <sir>, MUP <sir>, …

# filter with multiple antimicrobial selectors using c()
example_isolates[all(c(carbapenems(), aminoglycosides()) == "R"), ]
#> ℹ For `carbapenems()` using columns 'IPM' (imipenem) and 'MEM' (meropenem)
#> ℹ For `aminoglycosides()` using columns 'GEN' (gentamicin), 'TOB'
#>   (tobramycin), 'AMK' (amikacin), and 'KAN' (kanamycin)
#> # A tibble: 26 × 46
#>    date       patient   age gender ward     mo           PEN   OXA   FLC   AMX  
#>    <date>     <chr>   <dbl> <chr>  <chr>    <mo>         <sir> <sir> <sir> <sir>
#>  1 2004-11-03 D65308     80 F      ICU      B_STNTR_MLTP   R     NA    NA    R  
#>  2 2005-04-22 452212     82 F      ICU      B_ENTRC_FACM   NA    NA    NA    NA 
#>  3 2007-02-21 8BBC46     61 F      Clinical B_ENTRC_FACM   NA    NA    NA    NA 
#>  4 2007-12-15 401043     72 M      Clinical B_ENTRC_FACM   NA    NA    NA    NA 
#>  5 2008-12-06 501361     43 F      Clinical B_STNTR_MLTP   R     NA    NA    R  
#>  6 2011-05-09 207325     82 F      ICU      B_ENTRC_FACM   NA    NA    NA    NA 
#>  7 2012-03-12 582258     80 M      ICU      B_STPHY_CONS   R     R     R     R  
#>  8 2012-05-19 C25552     89 F      Outpati… B_STPHY_CONS   R     R     R     R  
#>  9 2012-07-17 F05015     83 M      ICU      B_STPHY_CONS   R     R     R     R  
#> 10 2012-07-20 404299     66 F      Clinical B_STPHY_CONS   R     R     R     R  
#> # ℹ 16 more rows
#> # ℹ 36 more variables: AMC <sir>, AMP <sir>, TZP <sir>, CZO <sir>, FEP <sir>,
#> #   CXM <sir>, FOX <sir>, CTX <sir>, CAZ <sir>, CRO <sir>, GEN <sir>,
#> #   TOB <sir>, AMK <sir>, KAN <sir>, TMP <sir>, SXT <sir>, NIT <sir>,
#> #   FOS <sir>, LNZ <sir>, CIP <sir>, MFX <sir>, VAN <sir>, TEC <sir>,
#> #   TCY <sir>, TGC <sir>, DOX <sir>, ERY <sir>, CLI <sir>, AZM <sir>,
#> #   IPM <sir>, MEM <sir>, MTR <sir>, CHL <sir>, COL <sir>, MUP <sir>, …

# filter + select in one go: get penicillins in carbapenem-resistant strains
example_isolates[any(carbapenems() == "R"), penicillins()]
#> ℹ For `carbapenems()` using columns 'IPM' (imipenem) and 'MEM' (meropenem)
#> ℹ For `penicillins()` using columns 'PEN' (benzylpenicillin), 'OXA'
#>   (oxacillin), 'FLC' (flucloxacillin), 'AMX' (amoxicillin), 'AMC'
#>   (amoxicillin/clavulanic acid), 'AMP' (ampicillin), and 'TZP'
#>   (piperacillin/tazobactam)
#> # A tibble: 55 × 7
#>    PEN   OXA   FLC   AMX   AMC   AMP   TZP  
#>    <sir> <sir> <sir> <sir> <sir> <sir> <sir>
#>  1   NA    NA    NA    NA    NA    NA    NA 
#>  2   NA    NA    NA    NA    NA    NA    NA 
#>  3   R     NA    NA    R     R     R     R  
#>  4   NA    NA    NA    NA    NA    NA    R  
#>  5   NA    NA    NA    NA    NA    NA    R  
#>  6   NA    NA    NA    NA    NA    NA    R  
#>  7   NA    NA    NA    NA    NA    NA    R  
#>  8   NA    NA    NA    NA    NA    NA    R  
#>  9   R     NA    NA    NA    S     NA    S  
#> 10   R     NA    NA    NA    S     NA    S  
#> # ℹ 45 more rows
…
example_isolates[, penicillins() & administrable_per_os()]
#> ℹ For `penicillins()` using columns 'PEN' (benzylpenicillin), 'OXA'
#>   (oxacillin), 'FLC' (flucloxacillin), 'AMX' (amoxicillin), 'AMC'
#>   (amoxicillin/clavulanic acid), 'AMP' (ampicillin), and 'TZP'
#>   (piperacillin/tazobactam)
#> ℹ For `administrable_per_os()` using columns 'OXA' (oxacillin), 'FLC'
#>   (flucloxacillin), 'AMX' (amoxicillin), 'AMC' (amoxicillin/clavulanic acid),
#>   'AMP' (ampicillin), 'CXM' (cefuroxime), 'KAN' (kanamycin), 'TMP'
#>   (trimethoprim), 'NIT' (nitrofurantoin), 'FOS' (fosfomycin), 'LNZ'
#>   (linezolid), 'CIP' (ciprofloxacin), 'MFX' (moxifloxacin), 'VAN'
#>   (vancomycin), 'TCY' (tetracycline), 'DOX' (doxycycline), 'ERY'
#>   (erythromycin), 'CLI' (clindamycin), 'AZM' (azithromycin), 'MTR'
#>   (metronidazole), 'CHL' (chloramphenicol), 'COL' (colistin), and 'RIF'
#>   (rifampicin)
#> # A tibble: 2,000 × 5
#>    OXA   FLC   AMX   AMC   AMP  
#>    <sir> <sir> <sir> <sir> <sir>
#>  1   NA    NA    NA    I     NA 
#>  2   NA    NA    NA    I     NA 
#>  3   NA    R     NA    NA    NA 
#>  4   NA    R     NA    NA    NA 
#>  5   NA    R     NA    NA    NA 
#>  6   NA    R     NA    NA    NA 
#>  7   NA    S     R     S     R  
#>  8   NA    S     R     S     R  
#>  9   NA    R     NA    NA    NA 
#> 10   NA    S     NA    NA    NA 
#> # ℹ 1,990 more rows

# amr_selector() applies a filter in the `antimicrobials` data set and is thus
# very flexible. For instance, to select antimicrobials with an oral DDD
# of at least 1 gram:
example_isolates[, amr_selector(oral_ddd > 1 & oral_units == "g")]
#> ℹ For `amr_selector(oral_ddd > 1 & oral_units == "g")` using columns 'OXA'
#>   (oxacillin), 'FLC' (flucloxacillin), 'AMX' (amoxicillin), 'AMC'
#>   (amoxicillin/clavulanic acid), 'AMP' (ampicillin), 'KAN' (kanamycin), 'FOS'
#>   (fosfomycin), 'LNZ' (linezolid), 'VAN' (vancomycin), 'ERY' (erythromycin),
#>   'CLI' (clindamycin), 'MTR' (metronidazole), and 'CHL' (chloramphenicol)
#> # A tibble: 2,000 × 13
#>    OXA   FLC   AMX   AMC   AMP   KAN   FOS   LNZ   VAN   ERY   CLI   MTR   CHL  
#>    <sir> <sir> <sir> <sir> <sir> <sir> <sir> <sir> <sir> <sir> <sir> <sir> <sir>
#>  1   NA    NA    NA    I     NA    NA    NA    R     R     R     R     NA    NA 
#>  2   NA    NA    NA    I     NA    NA    NA    R     R     R     R     NA    NA 
#>  3   NA    R     NA    NA    NA    NA    NA    NA    S     R     NA    NA    NA 
#>  4   NA    R     NA    NA    NA    NA    NA    NA    S     R     NA    NA    NA 
#>  5   NA    R     NA    NA    NA    NA    NA    NA    S     R     NA    NA    NA 
#>  6   NA    R     NA    NA    NA    NA    NA    NA    S     R     R     NA    NA 
#>  7   NA    S     R     S     R     NA    NA    NA    S     S     NA    NA    NA 
#>  8   NA    S     R     S     R     NA    NA    NA    S     S     NA    NA    NA 
#>  9   NA    R     NA    NA    NA    NA    NA    NA    S     R     NA    NA    NA 
#> 10   NA    S     NA    NA    NA    NA    NA    NA    S     S     NA    NA    NA 
#> # ℹ 1,990 more rows
…
