Data Sets with 603 Antimicrobial Drugs — antibiotics • AMR (for R)
…
These have become the gold standard for international drug utilisation monitoring and research.

The WHOCC is located in Oslo at the Norwegian Institute of Public Health and funded by the Norwegian government. The European Commission is the executive of the European Union and promotes its general interest.

NOTE: The WHOCC copyright does not allow use for commercial purposes, unlike any other info from this package. See https://www.whocc.no/copyright_disclaimer/.

    See also

    microorganisms, intrinsic_resistant

    Examples

antibiotics
#> # A tibble: 483 × 14
#>    ab        cid name        group atc   atc_g…¹ atc_g…² abbre…³ synon…⁴ oral_…⁵
#>    <ab>    <dbl> <chr>       <chr> <lis> <chr>   <chr>   <list>  <named>   <dbl>
#>  1 AMA      4649 4-aminosal… Anti… <chr> Drugs … Aminos… <chr>   <chr>     12   
#>  2 ACM   6450012 Acetylmide… Macr… <chr> NA      NA      <chr>   <chr>     NA   
#>  3 ASP  49787020 Acetylspir… Macr… <chr> NA      NA      <chr>   <chr>     NA   
#>  4 ALS      8954 Aldesulfon… Othe… <chr> Drugs … Drugs … <chr>   <chr>      0.33
#>  5 AMK     37768 Amikacin    Amin… <chr> Aminog… Other … <chr>   <chr>     NA   
#>  6 AKF        NA Amikacin/f… Amin… <chr> NA      NA      <chr>   <chr>     NA   
#>  7 AMX     33613 Amoxicillin Beta… <chr> Beta-l… Penici… <chr>   <chr>      1.5 
#>  8 AMC  23665637 Amoxicilli… Beta… <chr> Beta-l… Combin… <chr>   <chr>      1.5 
#>  9 AXS    465441 Amoxicilli… Beta… <chr> NA      NA      <chr>   <chr>     NA   
#> 10 AMB   5280965 Amphoteric… Anti… <chr> Antimy… Antibi… <chr>   <chr>     40   
#> # … with 473 more rows, 4 more variables: oral_units <chr>, iv_ddd <dbl>,
#> #   iv_units <chr>, loinc <list>, and abbreviated variable names ¹​atc_group1,
#> #   ²​atc_group2, ³​abbreviations, ⁴​synonyms, ⁵​oral_ddd
antivirals
#> # A tibble: 120 × 11
#>    av    name  atc      cid atc_g…¹ synon…² oral_…³ oral_…⁴ iv_ddd iv_un…⁵ loinc
#>    <av>  <chr> <chr>  <dbl> <chr>   <list>    <dbl> <chr>    <dbl> <chr>   <lis>
#>  1 ABA   Abac… J05A… 4.41e5 Nucleo… <chr>       0.6 g           NA NA      <chr>
#>  2 ACI   Acic… J05A… 1.35e8 Nucleo… <chr>       4   g            4 g       <chr>
#>  3 ADD   Adef… J05A… 6.09e4 Nucleo… <chr>      10   mg          NA NA      <chr>
#>  4 AME   Amen… J05A… 1.14e7 Other … <chr>       0.4 g           NA NA      <chr>
#>  5 AMP   Ampr… J05A… 6.50e4 Protea… <chr>       1.2 g           NA NA      <chr>
#>  6 ASU   Asun… J05A… 1.61e7 Antivi… <chr>       0.2 g           NA NA      <chr>
#>  7 ATA   Ataz… J05A… 1.48e5 Protea… <chr>       0.3 g           NA NA      <chr>
#>  8 ATA+… Ataz… J05A… 8.66e7 Antivi… <chr>      NA   NA          NA NA      <chr>
#>  9 ATA+… Ataz… J05A… 2.51e7 Antivi… <chr>       0.3 g           NA NA      <chr>
#> 10 BAM   Balo… J05A… 1.24e8 Other … <chr>      40   mg          NA NA      <chr>
#> # … with 110 more rows, and abbreviated variable names ¹​atc_group, ²​synonyms,
#> #   ³​oral_ddd, ⁴​oral_units, ⁵​iv_units
…
