…
**NOTE: The WHOCC copyright does not allow use for commercial purposes,
unlike any other info from this package.** See
<https://atcddd.fhi.no/copyright_disclaimer/.>

## See also

[microorganisms](https://amr-for-r.org/reference/microorganisms.md),
[intrinsic_resistant](https://amr-for-r.org/reference/intrinsic_resistant.md)

## Examples

``` r
antimicrobials
#> # A tibble: 498 × 14
#>    ab        cid name   group atc   atc_group1 atc_group2 abbreviations synonyms
#>    <ab>    <dbl> <chr>  <lis> <lis> <chr>      <chr>      <list>        <named >
#>  1 AMA      4649 4-ami… <chr> <chr> Drugs for… Aminosali… <chr [1]>     <chr>   
#>  2 ACM   6450012 Acety… <chr> <chr> NA         NA         <chr [1]>     <chr>   
#>  3 ASP  49787020 Acety… <chr> <chr> NA         NA         <chr [1]>     <chr>   
#>  4 ALS      8954 Aldes… <chr> <chr> Drugs for… Drugs for… <chr [1]>     <chr>   
#>  5 AMK     37768 Amika… <chr> <chr> Aminoglyc… Other ami… <chr [6]>     <chr>   
#>  6 AKF        NA Amika… <chr> <chr> NA         NA         <chr [1]>     <chr>   
#>  7 AMO     54260 Amoro… <chr> <chr> Antifunga… Other ant… <chr [1]>     <chr>   
#>  8 AMX     33613 Amoxi… <chr> <chr> Beta-lact… Penicilli… <chr [4]>     <chr>   
#>  9 AMC  23665637 Amoxi… <chr> <chr> Beta-lact… Combinati… <chr [6]>     <chr>   
#> 10 AXS    465441 Amoxi… <chr> <chr> NA         NA         <chr [1]>     <chr>   
#> # ℹ 488 more rows
#> # ℹ 5 more variables: oral_ddd <dbl>, oral_units <chr>, iv_ddd <dbl>,
#> #   iv_units <chr>, loinc <list>
antivirals
#> # A tibble: 120 × 11
#>    av       name      atc      cid atc_group synonyms oral_ddd oral_units iv_ddd
#>    <av>     <chr>     <chr>  <dbl> <chr>     <list>      <dbl> <chr>       <dbl>
#>  1 ABA      Abacavir  J05A… 4.41e5 Nucleosi… <chr>         0.6 g              NA
#>  2 ACI      Aciclovir J05A… 1.35e8 Nucleosi… <chr>         4   g               4
#>  3 ADD      Adefovir… J05A… 6.09e4 Nucleosi… <chr>        10   mg             NA
#>  4 AME      Amenamev… J05A… 1.14e7 Other an… <chr>         0.4 g              NA
#>  5 AMP      Amprenav… J05A… 6.50e4 Protease… <chr>         1.2 g              NA
#>  6 ASU      Asunapre… J05A… 1.61e7 Antivira… <chr>         0.2 g              NA
#>  7 ATA      Atazanav… J05A… 1.48e5 Protease… <chr>         0.3 g              NA
#>  8 ATA+COBI Atazanav… J05A… 8.66e7 Antivira… <chr>        NA   NA             NA
#>  9 ATA+RIT  Atazanav… J05A… 2.51e7 Antivira… <chr>         0.3 g              NA
#> 10 BAM      Baloxavi… J05A… 1.24e8 Other an… <chr>        40   mg             NA
#> # ℹ 110 more rows
#> # ℹ 2 more variables: iv_units <chr>, loinc <list>
```
