Transform Input to an Antibiotic ID — as.ab • AMR (for R)
…
# use ab_* functions to get a specific properties (see ?ab_property);
# they use as.ab() internally:
ab_name("J01FA01")    # "Erythromycin"
#> [1] "Erythromycin"
ab_name("eryt")       # "Erythromycin"
#> [1] "Erythromycin"
# \donttest{
if (require("dplyr")) {

  # you can quickly rename <rsi> columns using dplyr >= 1.0.0:
  example_isolates %>%
    rename_with(as.ab, where(is.rsi))
   
}
#> # A tibble: 2,000 × 49
#>    date       hospit…¹ ward_…² ward_…³ ward_…⁴   age gender patie…⁵ mo          
#>    <date>     <fct>    <lgl>   <lgl>   <lgl>   <dbl> <chr>  <chr>   <mo>        
#>  1 2002-01-02 D        FALSE   TRUE    FALSE      65 F      A77334  B_ESCHR_COLI
#>  2 2002-01-03 D        FALSE   TRUE    FALSE      65 F      A77334  B_ESCHR_COLI
#>  3 2002-01-07 B        TRUE    FALSE   FALSE      45 F      067927  B_STPHY_EPDR
#>  4 2002-01-07 B        TRUE    FALSE   FALSE      45 F      067927  B_STPHY_EPDR
#>  5 2002-01-13 B        TRUE    FALSE   FALSE      45 F      067927  B_STPHY_EPDR
#>  6 2002-01-13 B        TRUE    FALSE   FALSE      45 F      067927  B_STPHY_EPDR
#>  7 2002-01-14 D        FALSE   TRUE    FALSE      78 M      462729  B_STPHY_AURS
#>  8 2002-01-14 D        FALSE   TRUE    FALSE      78 M      462729  B_STPHY_AURS
#>  9 2002-01-16 B        TRUE    FALSE   FALSE      45 F      067927  B_STPHY_EPDR
#> 10 2002-01-17 B        TRUE    FALSE   FALSE      79 F      858515  B_STPHY_EPDR
#> # … with 1,990 more rows, 40 more variables: PEN <rsi>, OXA <rsi>, FLC <rsi>,
#> #   AMX <rsi>, AMC <rsi>, AMP <rsi>, TZP <rsi>, CZO <rsi>, FEP <rsi>,
#> #   CXM <rsi>, FOX <rsi>, CTX <rsi>, CAZ <rsi>, CRO <rsi>, GEN <rsi>,
#> #   TOB <rsi>, AMK <rsi>, KAN <rsi>, TMP <rsi>, SXT <rsi>, NIT <rsi>,
#> #   FOS <rsi>, LNZ <rsi>, CIP <rsi>, MFX <rsi>, VAN <rsi>, TEC <rsi>,
#> #   TCY <rsi>, TGC <rsi>, DOX <rsi>, ERY <rsi>, CLI <rsi>, AZM <rsi>,
#> #   IPM <rsi>, MEM <rsi>, MTR <rsi>, CHL <rsi>, COL <rsi>, MUP <rsi>, …
…
