…
# use ab_* functions to get a specific properties (see ?ab_property);
# they use as.ab() internally:
ab_name("J01FA01")
#> [1] "Erythromycin"
ab_name("eryt")
#> [1] "Erythromycin"

# \donttest{
if (require("dplyr")) {
  # you can quickly rename 'sir' columns using set_ab_names() with dplyr:
  example_isolates %>%
    set_ab_names(where(is.sir), property = "atc")
}
#> # A tibble: 2,000 × 46
#>    date       patient   age gender ward     mo           J01CE01 J01CF04 J01CF05
#>    <date>     <chr>   <dbl> <chr>  <chr>    <mo>         <sir>   <sir>   <sir>  
#>  1 2002-01-02 A77334     65 F      Clinical B_ESCHR_COLI   R       NA      NA   
#>  2 2002-01-03 A77334     65 F      Clinical B_ESCHR_COLI   R       NA      NA   
#>  3 2002-01-07 067927     45 F      ICU      B_STPHY_EPDR   R       NA      R    
#>  4 2002-01-07 067927     45 F      ICU      B_STPHY_EPDR   R       NA      R    
#>  5 2002-01-13 067927     45 F      ICU      B_STPHY_EPDR   R       NA      R    
#>  6 2002-01-13 067927     45 F      ICU      B_STPHY_EPDR   R       NA      R    
#>  7 2002-01-14 462729     78 M      Clinical B_STPHY_AURS   R       NA      S    
#>  8 2002-01-14 462729     78 M      Clinical B_STPHY_AURS   R       NA      S    
#>  9 2002-01-16 067927     45 F      ICU      B_STPHY_EPDR   R       NA      R    
#> 10 2002-01-17 858515     79 F      ICU      B_STPHY_EPDR   R       NA      S    
#> # ℹ 1,990 more rows
#> # ℹ 37 more variables: J01CA04 <sir>, J01CR02 <sir>, J01CA01 <sir>,
#> #   J01CR05 <sir>, J01DB04 <sir>, J01DE01 <sir>, J01DC02 <sir>, J01DC01 <sir>,
#> #   J01DD01 <sir>, J01DD02 <sir>, J01DD04 <sir>, J01GB03 <sir>, J01GB01 <sir>,
#> #   J01GB06 <sir>, J01GB04 <sir>, J01EA01 <sir>, J01EE01 <sir>, J01XE01 <sir>,
#> #   J01XX01 <sir>, J01XX08 <sir>, J01MA02 <sir>, J01MA14 <sir>, J01XA01 <sir>,
#> #   J01XA02 <sir>, J01AA07 <sir>, J01AA12 <sir>, J01AA02 <sir>, …
…
