Interpret MIC and Disk Values, or Clean Raw R/SI Data — as.rsi • AMR (for R)
…
This AMR package honours this insight. Use susceptibility() (equal to proportion_SI()) to determine antimicrobial susceptibility and count_susceptible() (equal to count_SI()) to count susceptible isolates.

    Reference Data Publicly Available

All data sets in this AMR package (about microorganisms, antibiotics, R/SI interpretation, EUCAST rules, etc.) are publicly and freely available for download in the following formats: R, MS Excel, Apache Feather, Apache Parquet, SPSS, SAS, and Stata. We also provide tab-separated plain text files that are machine-readable and suitable for input in any software program, such as laboratory information systems. Please visit our website for the download links. The actual files are of course available on our GitHub repository.

    See also

    as.mic(), as.disk(), as.mo()

    Examples

example_isolates
#> # A tibble: 2,000 × 46
#>    date       patient   age gender ward     mo           PEN   OXA   FLC   AMX  
#>    <date>     <chr>   <dbl> <chr>  <chr>    <mo>         <rsi> <rsi> <rsi> <rsi>
#>  1 2002-01-02 A77334     65 F      Clinical B_ESCHR_COLI R     NA    NA    NA   
#>  2 2002-01-03 A77334     65 F      Clinical B_ESCHR_COLI R     NA    NA    NA   
#>  3 2002-01-07 067927     45 F      ICU      B_STPHY_EPDR R     NA    R     NA   
#>  4 2002-01-07 067927     45 F      ICU      B_STPHY_EPDR R     NA    R     NA   
#>  5 2002-01-13 067927     45 F      ICU      B_STPHY_EPDR R     NA    R     NA   
#>  6 2002-01-13 067927     45 F      ICU      B_STPHY_EPDR R     NA    R     NA   
#>  7 2002-01-14 462729     78 M      Clinical B_STPHY_AURS R     NA    S     R    
#>  8 2002-01-14 462729     78 M      Clinical B_STPHY_AURS R     NA    S     R    
#>  9 2002-01-16 067927     45 F      ICU      B_STPHY_EPDR R     NA    R     NA   
#> 10 2002-01-17 858515     79 F      ICU      B_STPHY_EPDR R     NA    S     NA   
#> # … with 1,990 more rows, and 36 more variables: AMC <rsi>, AMP <rsi>,
#> #   TZP <rsi>, CZO <rsi>, FEP <rsi>, CXM <rsi>, FOX <rsi>, CTX <rsi>,
#> #   CAZ <rsi>, CRO <rsi>, GEN <rsi>, TOB <rsi>, AMK <rsi>, KAN <rsi>,
#> #   TMP <rsi>, SXT <rsi>, NIT <rsi>, FOS <rsi>, LNZ <rsi>, CIP <rsi>,
#> #   MFX <rsi>, VAN <rsi>, TEC <rsi>, TCY <rsi>, TGC <rsi>, DOX <rsi>,
#> #   ERY <rsi>, CLI <rsi>, AZM <rsi>, IPM <rsi>, MEM <rsi>, MTR <rsi>,
#> #   CHL <rsi>, COL <rsi>, MUP <rsi>, RIF <rsi>
…
# return a 'logbook' about the results:
rsi_interpretation_history()
#> # A tibble: 50 × 12
#>    datetime            index ab_input   ab_gu…¹ mo_in…² mo_guideline     guide…³
#>    <dttm>              <int> <chr>      <ab>    <chr>   <mo>             <chr>  
#>  1 2022-12-28 14:09:48     1 ampicillin AMP     Strep … B_STRPT_PNMN     EUCAST…
#>  2 2022-12-28 14:09:49     1 AMP        AMP     Escher… B_[ORD]_ENTRBCTR EUCAST…
#>  3 2022-12-28 14:09:49     1 CIP        CIP     Escher… B_[ORD]_ENTRBCTR EUCAST…
#>  4 2022-12-28 14:09:49     1 GEN        GEN     Escher… B_[ORD]_ENTRBCTR EUCAST…
#>  5 2022-12-28 14:09:50     1 TOB        TOB     Escher… B_[ORD]_ENTRBCTR EUCAST…
#>  6 2022-12-28 14:09:50     1 AMX        AMX     B_STRP… B_STRPT_PNMN     EUCAST…
#>  7 2022-12-28 14:09:50     1 AMX        AMX     B_STRP… B_STRPT_PNMN     EUCAST…
#>  8 2022-12-28 14:09:50     2 AMX        AMX     B_STRP… B_STRPT_PNMN     EUCAST…
#>  9 2022-12-28 14:09:50     3 AMX        AMX     B_STRP… B_STRPT_PNMN     EUCAST…
#> 10 2022-12-28 14:09:50     4 AMX        AMX     B_STRP… B_STRPT_PNMN     EUCAST…
#> # … with 40 more rows, 5 more variables: ref_table <chr>, method <chr>,
#> #   input <dbl>, outcome <rsi>, breakpoint_S_R <chr>, and abbreviated variable
#> #   names ¹​ab_guideline, ²​mo_input, ³​guideline
…
  # fastest way to transform all columns with already valid AMR results to class `rsi`:
  example_isolates %>%
    mutate_if(is.rsi.eligible, as.rsi)

  # since dplyr 1.0.0, this can also be:
  # example_isolates %>%
  #   mutate(across(where(is.rsi.eligible), as.rsi))
}
#> # A tibble: 2,000 × 46
#>    date       patient   age gender ward     mo           PEN   OXA   FLC   AMX  
#>    <date>     <chr>   <dbl> <chr>  <chr>    <mo>         <rsi> <rsi> <rsi> <rsi>
#>  1 2002-01-02 A77334     65 F      Clinical B_ESCHR_COLI R     NA    NA    NA   
#>  2 2002-01-03 A77334     65 F      Clinical B_ESCHR_COLI R     NA    NA    NA   
#>  3 2002-01-07 067927     45 F      ICU      B_STPHY_EPDR R     NA    R     NA   
#>  4 2002-01-07 067927     45 F      ICU      B_STPHY_EPDR R     NA    R     NA   
#>  5 2002-01-13 067927     45 F      ICU      B_STPHY_EPDR R     NA    R     NA   
#>  6 2002-01-13 067927     45 F      ICU      B_STPHY_EPDR R     NA    R     NA   
#>  7 2002-01-14 462729     78 M      Clinical B_STPHY_AURS R     NA    S     R    
#>  8 2002-01-14 462729     78 M      Clinical B_STPHY_AURS R     NA    S     R    
#>  9 2002-01-16 067927     45 F      ICU      B_STPHY_EPDR R     NA    R     NA   
#> 10 2002-01-17 858515     79 F      ICU      B_STPHY_EPDR R     NA    S     NA   
#> # … with 1,990 more rows, and 36 more variables: AMC <rsi>, AMP <rsi>,
#> #   TZP <rsi>, CZO <rsi>, FEP <rsi>, CXM <rsi>, FOX <rsi>, CTX <rsi>,
#> #   CAZ <rsi>, CRO <rsi>, GEN <rsi>, TOB <rsi>, AMK <rsi>, KAN <rsi>,
#> #   TMP <rsi>, SXT <rsi>, NIT <rsi>, FOS <rsi>, LNZ <rsi>, CIP <rsi>,
#> #   MFX <rsi>, VAN <rsi>, TEC <rsi>, TCY <rsi>, TGC <rsi>, DOX <rsi>,
#> #   ERY <rsi>, CLI <rsi>, AZM <rsi>, IPM <rsi>, MEM <rsi>, MTR <rsi>,
#> #   CHL <rsi>, COL <rsi>, MUP <rsi>, RIF <rsi>
…
