…
Visit [our website for direct download
links](https://amr-for-r.org/articles/datasets.html), or explore the
actual files in [our GitHub
repository](https://github.com/msberends/AMR/tree/main/data-raw/datasets).

## See also

[intrinsic_resistant](https://amr-for-r.org/reference/intrinsic_resistant.md)

## Examples

``` r
clinical_breakpoints
#> # A tibble: 40,217 × 14
#>    guideline   type  host  method site    mo            rank_index ab   ref_tbl 
#>    <chr>       <chr> <chr> <chr>  <chr>   <mo>               <dbl> <ab> <chr>   
#>  1 EUCAST 2025 human human DISK   NA      B_ACHRMB_XYLS          2 MEM  A. xylo…
#>  2 EUCAST 2025 human human MIC    NA      B_ACHRMB_XYLS          2 MEM  A. xylo…
#>  3 EUCAST 2025 human human DISK   NA      B_ACHRMB_XYLS          2 SXT  A. xylo…
#>  4 EUCAST 2025 human human MIC    NA      B_ACHRMB_XYLS          2 SXT  A. xylo…
#>  5 EUCAST 2025 human human DISK   NA      B_ACHRMB_XYLS          2 TZP  A. xylo…
#>  6 EUCAST 2025 human human MIC    NA      B_ACHRMB_XYLS          2 TZP  A. xylo…
#>  7 EUCAST 2025 human human DISK   NA      B_ACNTB                3 AMK  Acineto…
#>  8 EUCAST 2025 human human DISK   Uncomp… B_ACNTB                3 AMK  Acineto…
#>  9 EUCAST 2025 human human MIC    NA      B_ACNTB                3 AMK  Acineto…
#> 10 EUCAST 2025 human human MIC    Uncomp… B_ACNTB                3 AMK  Acineto…
#> # ℹ 40,207 more rows
#> # ℹ 5 more variables: disk_dose <chr>, breakpoint_S <dbl>, breakpoint_R <dbl>,
#> #   uti <lgl>, is_SDD <lgl>
```
