Data Set with Clinical Breakpoints for SIR Interpretation — clinical_breakpoints • AMR (for R)
…
Download

Like all data sets in this package, this data set is publicly available for download in the following formats: R, MS Excel, Apache Feather, Apache Parquet, SPSS, SAS, and Stata. Please visit our website for the download links. The actual files are of course available on our GitHub repository. They allow for machine reading EUCAST and CLSI guidelines, which is almost impossible with the MS Excel and PDF files distributed by EUCAST and CLSI, though initiatives have started to overcome these burdens.

NOTE: this AMR package (and the WHONET software as well) contains internal methods to apply the guidelines, which is rather complex. For example, some breakpoints must be applied on certain species groups (which are in case of this package available through the microorganisms.groups data set). It is important that this is considered when using the breakpoints for own use.

    See also

    intrinsic_resistant

    Examples

clinical_breakpoints
#> # A tibble: 29,747 × 12
#>    guideline type  method site  mo            rank_index ab   ref_tbl  disk_dose
#>    <chr>     <chr> <chr>  <chr> <mo>               <dbl> <ab> <chr>    <chr>    
#>  1 EUCAST 2… human DISK   NA    B_ACHRMB_XYLS          2 MEM  A. xylo… 10ug     
#>  2 EUCAST 2… human MIC    NA    B_ACHRMB_XYLS          2 MEM  A. xylo… NA       
#>  3 EUCAST 2… human DISK   NA    B_ACHRMB_XYLS          2 SXT  A. xylo… 1.25ug/2…
#>  4 EUCAST 2… human MIC    NA    B_ACHRMB_XYLS          2 SXT  A. xylo… NA       
#>  5 EUCAST 2… human DISK   NA    B_ACHRMB_XYLS          2 TZP  A. xylo… 30ug/6ug 
#>  6 EUCAST 2… human MIC    NA    B_ACHRMB_XYLS          2 TZP  A. xylo… NA       
#>  7 EUCAST 2… human DISK   NA    B_ACNTB                3 AMK  Acineto… 30ug     
#>  8 EUCAST 2… human DISK   Unco… B_ACNTB                3 AMK  Acineto… 30ug     
#>  9 EUCAST 2… human MIC    NA    B_ACNTB                3 AMK  Acineto… NA       
#> 10 EUCAST 2… human MIC    Unco… B_ACNTB                3 AMK  Acineto… NA       
#> # ℹ 29,737 more rows
#> # ℹ 3 more variables: breakpoint_S <dbl>, breakpoint_R <dbl>, uti <lgl>
…
