Data Set with 2,000 Example Isolates — example_isolates • AMR (for R)
…
mo
 ID of microorganism created with as.mo(), see also the microorganisms data set

PEN:RIF
 40 different antibiotics with class rsi (see as.rsi()); these column names occur in the antibiotics data set and can be translated with set_ab_names() or ab_name()

    Details

    Like all data sets in this package, this data set is publicly available for download in the following formats: R, MS Excel, Apache Feather, Apache Parquet, SPSS, SAS, and Stata. Please visit our website for the download links. The actual files are of course available on our GitHub repository.

    Examples

example_isolates
#> # A tibble: 2,000 × 46
#>    date       patient   age gender ward     mo           PEN   OXA   FLC   AMX  
#>    <date>     <chr>   <dbl> <chr>  <chr>    <mo>         <rsi> <rsi> <rsi> <rsi>
#>  1 2002-01-02 A77334     65 F      Clinical B_ESCHR_COLI R     NA    NA    NA   
#>  2 2002-01-03 A77334     65 F      Clinical B_ESCHR_COLI R     NA    NA    NA   
#>  3 2002-01-07 067927     45 F      ICU      B_STPHY_EPDR R     NA    R     NA   
#>  4 2002-01-07 067927     45 F      ICU      B_STPHY_EPDR R     NA    R     NA   
#>  5 2002-01-13 067927     45 F      ICU      B_STPHY_EPDR R     NA    R     NA   
#>  6 2002-01-13 067927     45 F      ICU      B_STPHY_EPDR R     NA    R     NA   
#>  7 2002-01-14 462729     78 M      Clinical B_STPHY_AURS R     NA    S     R    
#>  8 2002-01-14 462729     78 M      Clinical B_STPHY_AURS R     NA    S     R    
#>  9 2002-01-16 067927     45 F      ICU      B_STPHY_EPDR R     NA    R     NA   
#> 10 2002-01-17 858515     79 F      ICU      B_STPHY_EPDR R     NA    S     NA   
#> # … with 1,990 more rows, and 36 more variables: AMC <rsi>, AMP <rsi>,
#> #   TZP <rsi>, CZO <rsi>, FEP <rsi>, CXM <rsi>, FOX <rsi>, CTX <rsi>,
#> #   CAZ <rsi>, CRO <rsi>, GEN <rsi>, TOB <rsi>, AMK <rsi>, KAN <rsi>,
#> #   TMP <rsi>, SXT <rsi>, NIT <rsi>, FOS <rsi>, LNZ <rsi>, CIP <rsi>,
#> #   MFX <rsi>, VAN <rsi>, TEC <rsi>, TCY <rsi>, TGC <rsi>, DOX <rsi>,
#> #   ERY <rsi>, CLI <rsi>, AZM <rsi>, IPM <rsi>, MEM <rsi>, MTR <rsi>,
#> #   CHL <rsi>, COL <rsi>, MUP <rsi>, RIF <rsi>
…
