…
``` r
# `example_isolates` is a data set available in the AMR package.
# See ?example_isolates.

example_isolates[first_isolate(info = TRUE), ]
#> ℹ Determining first isolates using an episode length of 365 days
#> ℹ Using column 'date' as input for `col_date`.
#> ℹ Using column 'patient' as input for `col_patient_id`.
#> ℹ Basing inclusion on all antimicrobial results, using a points threshold
#>   of 2
#> ℹ Excluding 16 isolates with a microbial ID 'UNKNOWN' (in column 'mo')
#> => Found 1,387 'phenotype-based' first isolates (69.4% of total where a
#>    microbial ID was available)
#> # A tibble: 1,387 × 46
#>    date       patient   age gender ward     mo           PEN   OXA   FLC   AMX  
#>    <date>     <chr>   <dbl> <chr>  <chr>    <mo>         <sir> <sir> <sir> <sir>
#>  1 2002-01-02 A77334     65 F      Clinical B_ESCHR_COLI   R     NA    NA    NA 
#>  2 2002-01-07 067927     45 F      ICU      B_STPHY_EPDR   R     NA    R     NA 
#>  3 2002-01-14 462729     78 M      Clinical B_STPHY_AURS   R     NA    S     R  
#>  4 2002-01-16 067927     45 F      ICU      B_STPHY_EPDR   R     NA    R     NA 
#>  5 2002-01-17 858515     79 F      ICU      B_STPHY_EPDR   R     NA    S     NA 
#>  6 2002-01-17 495616     67 M      Clinical B_STPHY_EPDR   R     NA    S     NA 
#>  7 2002-01-19 738003     71 M      Clinical B_ESCHR_COLI   R     NA    NA    NA 
#>  8 2002-01-21 462081     75 F      Clinical B_CTRBC_FRND   R     NA    NA    R  
#>  9 2002-01-22 F35553     50 M      ICU      B_PROTS_MRBL   R     NA    NA    NA 
#> 10 2002-02-03 481442     76 M      ICU      B_STPHY_CONS   R     NA    S     NA 
#> # ℹ 1,377 more rows
#> # ℹ 36 more variables: AMC <sir>, AMP <sir>, TZP <sir>, CZO <sir>, FEP <sir>,
#> #   CXM <sir>, FOX <sir>, CTX <sir>, CAZ <sir>, CRO <sir>, GEN <sir>,
#> #   TOB <sir>, AMK <sir>, KAN <sir>, TMP <sir>, SXT <sir>, NIT <sir>,
#> #   FOS <sir>, LNZ <sir>, CIP <sir>, MFX <sir>, VAN <sir>, TEC <sir>,
#> #   TCY <sir>, TGC <sir>, DOX <sir>, ERY <sir>, CLI <sir>, AZM <sir>,
#> #   IPM <sir>, MEM <sir>, MTR <sir>, CHL <sir>, COL <sir>, MUP <sir>, …
# \donttest{
# get all first Gram-negatives
example_isolates[which(first_isolate(info = FALSE) & mo_is_gram_negative()), ]
#> ℹ Using column 'mo' as input for `mo_is_gram_negative()`
#> # A tibble: 441 × 46
#>    date       patient   age gender ward     mo           PEN   OXA   FLC   AMX  
#>    <date>     <chr>   <dbl> <chr>  <chr>    <mo>         <sir> <sir> <sir> <sir>
#>  1 2002-01-02 A77334     65 F      Clinical B_ESCHR_COLI   R     NA    NA    NA 
#>  2 2002-01-19 738003     71 M      Clinical B_ESCHR_COLI   R     NA    NA    NA 
#>  3 2002-01-21 462081     75 F      Clinical B_CTRBC_FRND   R     NA    NA    R  
#>  4 2002-01-22 F35553     50 M      ICU      B_PROTS_MRBL   R     NA    NA    NA 
#>  5 2002-02-05 067927     45 F      ICU      B_SERRT_MRCS   R     NA    NA    R  
#>  6 2002-02-27 066895     85 F      Clinical B_KLBSL_PNMN   R     NA    NA    R  
#>  7 2002-03-08 4FC193     69 M      Clinical B_ESCHR_COLI   R     NA    NA    R  
#>  8 2002-03-16 4FC193     69 M      Clinical B_PSDMN_AERG   R     NA    NA    R  
#>  9 2002-04-01 496896     46 F      ICU      B_ESCHR_COLI   R     NA    NA    NA 
#> 10 2002-04-23 EE2510     69 F      ICU      B_ESCHR_COLI   R     NA    NA    NA 
#> # ℹ 431 more rows
#> # ℹ 36 more variables: AMC <sir>, AMP <sir>, TZP <sir>, CZO <sir>, FEP <sir>,
#> #   CXM <sir>, FOX <sir>, CTX <sir>, CAZ <sir>, CRO <sir>, GEN <sir>,
#> #   TOB <sir>, AMK <sir>, KAN <sir>, TMP <sir>, SXT <sir>, NIT <sir>,
#> #   FOS <sir>, LNZ <sir>, CIP <sir>, MFX <sir>, VAN <sir>, TEC <sir>,
#> #   TCY <sir>, TGC <sir>, DOX <sir>, ERY <sir>, CLI <sir>, AZM <sir>,
#> #   IPM <sir>, MEM <sir>, MTR <sir>, CHL <sir>, COL <sir>, MUP <sir>, …

if (require("dplyr")) {
  # filter on first isolates using dplyr:
  example_isolates %>%
    filter(first_isolate(info = TRUE))
}
#> ℹ Determining first isolates using an episode length of 365 days
#> ℹ Basing inclusion on all antimicrobial results, using a points threshold
#>   of 2
#> ℹ Excluding 16 isolates with a microbial ID 'UNKNOWN' (in column 'mo')
#> => Found 1,387 'phenotype-based' first isolates (69.4% of total where a
#>    microbial ID was available)
#> # A tibble: 1,387 × 46
#>    date       patient   age gender ward     mo           PEN   OXA   FLC   AMX  
#>    <date>     <chr>   <dbl> <chr>  <chr>    <mo>         <sir> <sir> <sir> <sir>
#>  1 2002-01-02 A77334     65 F      Clinical B_ESCHR_COLI   R     NA    NA    NA 
#>  2 2002-01-07 067927     45 F      ICU      B_STPHY_EPDR   R     NA    R     NA 
#>  3 2002-01-14 462729     78 M      Clinical B_STPHY_AURS   R     NA    S     R  
#>  4 2002-01-16 067927     45 F      ICU      B_STPHY_EPDR   R     NA    R     NA 
#>  5 2002-01-17 858515     79 F      ICU      B_STPHY_EPDR   R     NA    S     NA 
#>  6 2002-01-17 495616     67 M      Clinical B_STPHY_EPDR   R     NA    S     NA 
#>  7 2002-01-19 738003     71 M      Clinical B_ESCHR_COLI   R     NA    NA    NA 
#>  8 2002-01-21 462081     75 F      Clinical B_CTRBC_FRND   R     NA    NA    R  
#>  9 2002-01-22 F35553     50 M      ICU      B_PROTS_MRBL   R     NA    NA    NA 
#> 10 2002-02-03 481442     76 M      ICU      B_STPHY_CONS   R     NA    S     NA 
#> # ℹ 1,377 more rows
#> # ℹ 36 more variables: AMC <sir>, AMP <sir>, TZP <sir>, CZO <sir>, FEP <sir>,
#> #   CXM <sir>, FOX <sir>, CTX <sir>, CAZ <sir>, CRO <sir>, GEN <sir>,
#> #   TOB <sir>, AMK <sir>, KAN <sir>, TMP <sir>, SXT <sir>, NIT <sir>,
#> #   FOS <sir>, LNZ <sir>, CIP <sir>, MFX <sir>, VAN <sir>, TEC <sir>,
#> #   TCY <sir>, TGC <sir>, DOX <sir>, ERY <sir>, CLI <sir>, AZM <sir>,
#> #   IPM <sir>, MEM <sir>, MTR <sir>, CHL <sir>, COL <sir>, MUP <sir>, …
if (require("dplyr")) {
  # short-hand version:
  example_isolates %>%
    filter_first_isolate(info = FALSE)
}
#> # A tibble: 1,387 × 46
#>    date       patient   age gender ward     mo           PEN   OXA   FLC   AMX  
#>    <date>     <chr>   <dbl> <chr>  <chr>    <mo>         <sir> <sir> <sir> <sir>
#>  1 2002-01-02 A77334     65 F      Clinical B_ESCHR_COLI   R     NA    NA    NA 
#>  2 2002-01-07 067927     45 F      ICU      B_STPHY_EPDR   R     NA    R     NA 
#>  3 2002-01-14 462729     78 M      Clinical B_STPHY_AURS   R     NA    S     R  
#>  4 2002-01-16 067927     45 F      ICU      B_STPHY_EPDR   R     NA    R     NA 
#>  5 2002-01-17 858515     79 F      ICU      B_STPHY_EPDR   R     NA    S     NA 
#>  6 2002-01-17 495616     67 M      Clinical B_STPHY_EPDR   R     NA    S     NA 
#>  7 2002-01-19 738003     71 M      Clinical B_ESCHR_COLI   R     NA    NA    NA 
#>  8 2002-01-21 462081     75 F      Clinical B_CTRBC_FRND   R     NA    NA    R  
#>  9 2002-01-22 F35553     50 M      ICU      B_PROTS_MRBL   R     NA    NA    NA 
#> 10 2002-02-03 481442     76 M      ICU      B_STPHY_CONS   R     NA    S     NA 
#> # ℹ 1,377 more rows
#> # ℹ 36 more variables: AMC <sir>, AMP <sir>, TZP <sir>, CZO <sir>, FEP <sir>,
#> #   CXM <sir>, FOX <sir>, CTX <sir>, CAZ <sir>, CRO <sir>, GEN <sir>,
#> #   TOB <sir>, AMK <sir>, KAN <sir>, TMP <sir>, SXT <sir>, NIT <sir>,
#> #   FOS <sir>, LNZ <sir>, CIP <sir>, MFX <sir>, VAN <sir>, TEC <sir>,
#> #   TCY <sir>, TGC <sir>, DOX <sir>, ERY <sir>, CLI <sir>, AZM <sir>,
#> #   IPM <sir>, MEM <sir>, MTR <sir>, CHL <sir>, COL <sir>, MUP <sir>, …
…
#> Group: ward = "Clinical"
#> ℹ Excluding 9 isolates with a microbial ID 'UNKNOWN' (in column 'mo')
#> => Found 865 'phenotype-based' first isolates (70.1% of total where a
#>    microbial ID was available)
#> 
#> Group: ward = "ICU"
#> ℹ Excluding 6 isolates with a microbial ID 'UNKNOWN' (in column 'mo')
#> => Found 452 'phenotype-based' first isolates (70.0% of total where a
#>    microbial ID was available)
#> 
#> Group: ward = "Outpatient"
#> ℹ Excluding 1 isolates with a microbial ID 'UNKNOWN' (in column 'mo')
#> => Found 99 'phenotype-based' first isolates (82.5% of total where a
#>    microbial ID was available)
#> # A tibble: 2,000 × 5
#> # Groups:   ward [3]
#>    ward     date       patient mo           first
#>    <chr>    <date>     <chr>   <mo>         <lgl>
#>  1 Clinical 2002-01-02 A77334  B_ESCHR_COLI TRUE 
#>  2 Clinical 2002-01-03 A77334  B_ESCHR_COLI FALSE
#>  3 ICU      2002-01-07 067927  B_STPHY_EPDR TRUE 
#>  4 ICU      2002-01-07 067927  B_STPHY_EPDR FALSE
#>  5 ICU      2002-01-13 067927  B_STPHY_EPDR FALSE
#>  6 ICU      2002-01-13 067927  B_STPHY_EPDR FALSE
#>  7 Clinical 2002-01-14 462729  B_STPHY_AURS TRUE 
#>  8 Clinical 2002-01-14 462729  B_STPHY_AURS FALSE
#>  9 ICU      2002-01-16 067927  B_STPHY_EPDR TRUE 
#> 10 ICU      2002-01-17 858515  B_STPHY_EPDR TRUE 
#> # ℹ 1,990 more rows
…
