Determine First Isolates — first_isolate • AMR (for R)
…
The default method is phenotype-based (using type = "points") and episode-based (using episode_days = 365). This makes sure that every genus-species combination is selected per patient once per year, while taking into account all antimicrobial test results. If no antimicrobial test results are available in the data set, only the episode-based method is applied at default.

    See also

    key_antimicrobials()

    Examples

# `example_isolates` is a data set available in the AMR package.
# See ?example_isolates.

example_isolates[first_isolate(), ]
#> Including isolates from ICU.
#> # A tibble: 1,379 × 46
#>    date       patient   age gender ward     mo           PEN   OXA   FLC   AMX  
#>    <date>     <chr>   <dbl> <chr>  <chr>    <mo>         <rsi> <rsi> <rsi> <rsi>
#>  1 2002-01-02 A77334     65 F      Clinical B_ESCHR_COLI R     NA    NA    NA   
#>  2 2002-01-07 067927     45 F      ICU      B_STPHY_EPDR R     NA    R     NA   
#>  3 2002-01-14 462729     78 M      Clinical B_STPHY_AURS R     NA    S     R    
#>  4 2002-01-17 858515     79 F      ICU      B_STPHY_EPDR R     NA    S     NA   
#>  5 2002-01-17 495616     67 M      Clinical B_STPHY_EPDR R     NA    S     NA   
#>  6 2002-01-19 738003     71 M      Clinical B_ESCHR_COLI R     NA    NA    NA   
#>  7 2002-01-21 462081     75 F      Clinical B_CTRBC_FRND R     NA    NA    R    
#>  8 2002-01-22 F35553     50 M      ICU      B_PROTS_MRBL R     NA    NA    NA   
#>  9 2002-02-03 481442     76 M      ICU      B_STPHY_CONS R     NA    S     NA   
#> 10 2002-02-05 023456     50 M      Clinical B_STPHY_HMNS S     NA    S     NA   
#> # … with 1,369 more rows, and 36 more variables: AMC <rsi>, AMP <rsi>,
#> #   TZP <rsi>, CZO <rsi>, FEP <rsi>, CXM <rsi>, FOX <rsi>, CTX <rsi>,
#> #   CAZ <rsi>, CRO <rsi>, GEN <rsi>, TOB <rsi>, AMK <rsi>, KAN <rsi>,
#> #   TMP <rsi>, SXT <rsi>, NIT <rsi>, FOS <rsi>, LNZ <rsi>, CIP <rsi>,
#> #   MFX <rsi>, VAN <rsi>, TEC <rsi>, TCY <rsi>, TGC <rsi>, DOX <rsi>,
#> #   ERY <rsi>, CLI <rsi>, AZM <rsi>, IPM <rsi>, MEM <rsi>, MTR <rsi>,
#> #   CHL <rsi>, COL <rsi>, MUP <rsi>, RIF <rsi>
# \donttest{
# get all first Gram-negatives
example_isolates[which(first_isolate(info = FALSE) & mo_is_gram_negative()), ]
#> Including isolates from ICU.
#> ℹ Using column 'mo' as input for mo_is_gram_negative()
#> # A tibble: 437 × 46
#>    date       patient   age gender ward     mo           PEN   OXA   FLC   AMX  
#>    <date>     <chr>   <dbl> <chr>  <chr>    <mo>         <rsi> <rsi> <rsi> <rsi>
#>  1 2002-01-02 A77334     65 F      Clinical B_ESCHR_COLI R     NA    NA    NA   
#>  2 2002-01-19 738003     71 M      Clinical B_ESCHR_COLI R     NA    NA    NA   
#>  3 2002-01-21 462081     75 F      Clinical B_CTRBC_FRND R     NA    NA    R    
#>  4 2002-01-22 F35553     50 M      ICU      B_PROTS_MRBL R     NA    NA    NA   
#>  5 2002-02-05 067927     45 F      ICU      B_SERRT_MRCS R     NA    NA    R    
#>  6 2002-02-27 066895     85 F      Clinical B_KLBSL_PNMN R     NA    NA    R    
#>  7 2002-03-08 4FC193     69 M      Clinical B_ESCHR_COLI R     NA    NA    R    
#>  8 2002-03-16 4FC193     69 M      Clinical B_PSDMN_AERG R     NA    NA    R    
#>  9 2002-04-01 496896     46 F      ICU      B_ESCHR_COLI R     NA    NA    NA   
#> 10 2002-04-23 EE2510     69 F      ICU      B_ESCHR_COLI R     NA    NA    NA   
#> # … with 427 more rows, and 36 more variables: AMC <rsi>, AMP <rsi>, TZP <rsi>,
#> #   CZO <rsi>, FEP <rsi>, CXM <rsi>, FOX <rsi>, CTX <rsi>, CAZ <rsi>,
#> #   CRO <rsi>, GEN <rsi>, TOB <rsi>, AMK <rsi>, KAN <rsi>, TMP <rsi>,
#> #   SXT <rsi>, NIT <rsi>, FOS <rsi>, LNZ <rsi>, CIP <rsi>, MFX <rsi>,
#> #   VAN <rsi>, TEC <rsi>, TCY <rsi>, TGC <rsi>, DOX <rsi>, ERY <rsi>,
#> #   CLI <rsi>, AZM <rsi>, IPM <rsi>, MEM <rsi>, MTR <rsi>, CHL <rsi>,
#> #   COL <rsi>, MUP <rsi>, RIF <rsi>

if (require("dplyr")) {
  # filter on first isolates using dplyr:
  example_isolates %>%
    filter(first_isolate())
}
#> Including isolates from ICU.
#> # A tibble: 1,379 × 46
#>    date       patient   age gender ward     mo           PEN   OXA   FLC   AMX  
#>    <date>     <chr>   <dbl> <chr>  <chr>    <mo>         <rsi> <rsi> <rsi> <rsi>
#>  1 2002-01-02 A77334     65 F      Clinical B_ESCHR_COLI R     NA    NA    NA   
#>  2 2002-01-07 067927     45 F      ICU      B_STPHY_EPDR R     NA    R     NA   
#>  3 2002-01-14 462729     78 M      Clinical B_STPHY_AURS R     NA    S     R    
#>  4 2002-01-17 858515     79 F      ICU      B_STPHY_EPDR R     NA    S     NA   
#>  5 2002-01-17 495616     67 M      Clinical B_STPHY_EPDR R     NA    S     NA   
#>  6 2002-01-19 738003     71 M      Clinical B_ESCHR_COLI R     NA    NA    NA   
#>  7 2002-01-21 462081     75 F      Clinical B_CTRBC_FRND R     NA    NA    R    
#>  8 2002-01-22 F35553     50 M      ICU      B_PROTS_MRBL R     NA    NA    NA   
#>  9 2002-02-03 481442     76 M      ICU      B_STPHY_CONS R     NA    S     NA   
#> 10 2002-02-05 023456     50 M      Clinical B_STPHY_HMNS S     NA    S     NA   
#> # … with 1,369 more rows, and 36 more variables: AMC <rsi>, AMP <rsi>,
#> #   TZP <rsi>, CZO <rsi>, FEP <rsi>, CXM <rsi>, FOX <rsi>, CTX <rsi>,
#> #   CAZ <rsi>, CRO <rsi>, GEN <rsi>, TOB <rsi>, AMK <rsi>, KAN <rsi>,
#> #   TMP <rsi>, SXT <rsi>, NIT <rsi>, FOS <rsi>, LNZ <rsi>, CIP <rsi>,
#> #   MFX <rsi>, VAN <rsi>, TEC <rsi>, TCY <rsi>, TGC <rsi>, DOX <rsi>,
#> #   ERY <rsi>, CLI <rsi>, AZM <rsi>, IPM <rsi>, MEM <rsi>, MTR <rsi>,
#> #   CHL <rsi>, COL <rsi>, MUP <rsi>, RIF <rsi>
if (require("dplyr")) {

  # short-hand version:
  example_isolates %>%
    filter_first_isolate(info = FALSE)
}
#> Including isolates from ICU.
#> # A tibble: 1,379 × 46
#>    date       patient   age gender ward     mo           PEN   OXA   FLC   AMX  
#>    <date>     <chr>   <dbl> <chr>  <chr>    <mo>         <rsi> <rsi> <rsi> <rsi>
#>  1 2002-01-02 A77334     65 F      Clinical B_ESCHR_COLI R     NA    NA    NA   
#>  2 2002-01-07 067927     45 F      ICU      B_STPHY_EPDR R     NA    R     NA   
#>  3 2002-01-14 462729     78 M      Clinical B_STPHY_AURS R     NA    S     R    
#>  4 2002-01-17 858515     79 F      ICU      B_STPHY_EPDR R     NA    S     NA   
#>  5 2002-01-17 495616     67 M      Clinical B_STPHY_EPDR R     NA    S     NA   
#>  6 2002-01-19 738003     71 M      Clinical B_ESCHR_COLI R     NA    NA    NA   
#>  7 2002-01-21 462081     75 F      Clinical B_CTRBC_FRND R     NA    NA    R    
#>  8 2002-01-22 F35553     50 M      ICU      B_PROTS_MRBL R     NA    NA    NA   
#>  9 2002-02-03 481442     76 M      ICU      B_STPHY_CONS R     NA    S     NA   
#> 10 2002-02-05 023456     50 M      Clinical B_STPHY_HMNS S     NA    S     NA   
#> # … with 1,369 more rows, and 36 more variables: AMC <rsi>, AMP <rsi>,
#> #   TZP <rsi>, CZO <rsi>, FEP <rsi>, CXM <rsi>, FOX <rsi>, CTX <rsi>,
#> #   CAZ <rsi>, CRO <rsi>, GEN <rsi>, TOB <rsi>, AMK <rsi>, KAN <rsi>,
#> #   TMP <rsi>, SXT <rsi>, NIT <rsi>, FOS <rsi>, LNZ <rsi>, CIP <rsi>,
#> #   MFX <rsi>, VAN <rsi>, TEC <rsi>, TCY <rsi>, TGC <rsi>, DOX <rsi>,
#> #   ERY <rsi>, CLI <rsi>, AZM <rsi>, IPM <rsi>, MEM <rsi>, MTR <rsi>,
#> #   CHL <rsi>, COL <rsi>, MUP <rsi>, RIF <rsi>
if (require("dplyr")) {

  # flag the first isolates per group:
  example_isolates %>%
    group_by(ward) %>%
    mutate(first = first_isolate()) %>%
    select(ward, date, patient, mo, first)
}
#> Including isolates from ICU.
#> Including isolates from ICU.
#> Including isolates from ICU.
#> # A tibble: 2,000 × 5
#> # Groups:   ward [3]
#>    ward     date       patient mo           first
#>    <chr>    <date>     <chr>   <mo>         <lgl>
#>  1 Clinical 2002-01-02 A77334  B_ESCHR_COLI TRUE 
#>  2 Clinical 2002-01-03 A77334  B_ESCHR_COLI FALSE
#>  3 ICU      2002-01-07 067927  B_STPHY_EPDR TRUE 
#>  4 ICU      2002-01-07 067927  B_STPHY_EPDR FALSE
#>  5 ICU      2002-01-13 067927  B_STPHY_EPDR FALSE
#>  6 ICU      2002-01-13 067927  B_STPHY_EPDR FALSE
#>  7 Clinical 2002-01-14 462729  B_STPHY_AURS TRUE 
#>  8 Clinical 2002-01-14 462729  B_STPHY_AURS FALSE
#>  9 ICU      2002-01-16 067927  B_STPHY_EPDR FALSE
#> 10 ICU      2002-01-17 858515  B_STPHY_EPDR TRUE 
#> # … with 1,990 more rows
…
