…
if (require("dplyr")) {
  # is_new_episode() can also be used in dplyr verbs to determine patient
  # episodes based on any (combination of) grouping variables:
  df %>%
    mutate(condition = sample(
      x = c("A", "B", "C"),
      size = 100,
      replace = TRUE
    )) %>%
    group_by(patient, condition) %>%
    mutate(new_episode = is_new_episode(date, 365)) %>%
    select(patient, date, condition, new_episode) %>%
    arrange(patient, condition, date)
}
#> # A tibble: 100 × 4
#> # Groups:   patient, condition [97]
#>    patient date       condition new_episode
#>    <chr>   <date>     <chr>     <lgl>      
#>  1 018637  2005-09-28 C         TRUE       
#>  2 022060  2004-05-04 C         TRUE       
#>  3 032343  2003-06-09 B         TRUE       
#>  4 080086  2010-08-08 C         TRUE       
#>  5 126334  2009-11-26 A         TRUE       
#>  6 149442  2002-08-31 C         TRUE       
#>  7 14D826  2006-09-14 A         TRUE       
#>  8 16F0F7  2010-01-17 C         TRUE       
#>  9 179451  2007-09-15 B         TRUE       
#> 10 189795  2008-10-19 B         TRUE       
#> # ℹ 90 more rows

if (require("dplyr")) {
  df %>%
    group_by(ward, patient) %>%
    transmute(date,
      patient,
      new_index = get_episode(date, 60),
      new_logical = is_new_episode(date, 60)
    ) %>%
    arrange(patient, ward, date)
}
#> # A tibble: 100 × 5
#> # Groups:   ward, patient [94]
#>    ward       date       patient new_index new_logical
#>    <chr>      <date>     <chr>       <int> <lgl>      
#>  1 Clinical   2005-09-28 018637          1 TRUE       
#>  2 ICU        2004-05-04 022060          1 TRUE       
#>  3 Clinical   2003-06-09 032343          1 TRUE       
#>  4 Clinical   2010-08-08 080086          1 TRUE       
#>  5 Outpatient 2009-11-26 126334          1 TRUE       
#>  6 ICU        2002-08-31 149442          1 TRUE       
#>  7 Clinical   2006-09-14 14D826          1 TRUE       
#>  8 Clinical   2010-01-17 16F0F7          1 TRUE       
#>  9 ICU        2007-09-15 179451          1 TRUE       
#> 10 Clinical   2008-10-19 189795          1 TRUE       
#> # ℹ 90 more rows
…
  identical(x, y)
}
#> [1] TRUE

# but is_new_episode() has a lot more flexibility than first_isolate(),
# since you can now group on anything that seems relevant:
if (require("dplyr")) {
  df %>%
    group_by(patient, mo, ward) %>%
    mutate(flag_episode = is_new_episode(date, 365)) %>%
    select(group_vars(.), flag_episode)
}
#> # A tibble: 100 × 4
#> # Groups:   patient, mo, ward [97]
#>    patient mo           ward     flag_episode
#>    <chr>   <mo>         <chr>    <lgl>       
#>  1 189795  B_AERCC_URNQ Clinical TRUE        
#>  2 5C1947  B_ESCHR_COLI Clinical TRUE        
#>  3 D22254  B_ESCHR_COLI Clinical TRUE        
#>  4 018637  B_ESCHR_COLI Clinical TRUE        
#>  5 483195  B_ESCHR_COLI ICU      TRUE        
#>  6 324415  B_PROTS_MRBL ICU      TRUE        
#>  7 671180  B_ESCHR_COLI Clinical TRUE        
#>  8 59B5BD  B_ESCHR_COLI Clinical TRUE        
#>  9 443847  B_STPHY_CONS Clinical TRUE        
#> 10 690B42  B_ESCHR_COLI ICU      TRUE        
#> # ℹ 90 more rows
…
