Determine (New) Episodes for Patients — get_episode • AMR (for R)
…
# \donttest{
if (require("dplyr")) {
  # is_new_episode() can also be used in dplyr verbs to determine patient
  # episodes based on any (combination of) grouping variables:
  df %>%
    mutate(condition = sample(
      x = c("A", "B", "C"),
      size = 200,
      replace = TRUE
    )) %>%
    group_by(condition) %>%
    mutate(new_episode = is_new_episode(date, 365)) %>%
    select(patient, date, condition, new_episode)
}
#> # A tibble: 200 × 4
#> # Groups:   condition [3]
#>    patient date       condition new_episode
#>    <chr>   <date>     <chr>     <lgl>      
#>  1 E59875  2006-03-25 C         FALSE      
#>  2 C34072  2006-07-05 C         TRUE       
#>  3 0DBF93  2015-10-12 A         FALSE      
#>  4 2F9056  2014-05-06 A         TRUE       
#>  5 953526  2010-04-23 B         FALSE      
#>  6 976997  2017-03-02 C         FALSE      
#>  7 080086  2007-10-26 B         FALSE      
#>  8 956065  2002-11-18 B         FALSE      
#>  9 612575  2006-01-31 B         FALSE      
#> 10 285137  2002-12-13 C         FALSE      
#> # … with 190 more rows
if (require("dplyr")) {
  df %>%
    group_by(ward, patient) %>%
    transmute(date,
      patient,
      new_index = get_episode(date, 60),
      new_logical = is_new_episode(date, 60)
    )
}
#> # A tibble: 200 × 5
#> # Groups:   ward, patient [178]
#>    ward     date       patient new_index new_logical
#>    <chr>    <date>     <chr>       <dbl> <lgl>      
#>  1 ICU      2006-03-25 E59875          1 TRUE       
#>  2 Clinical 2006-07-05 C34072          1 TRUE       
#>  3 Clinical 2015-10-12 0DBF93          1 TRUE       
#>  4 ICU      2014-05-06 2F9056          1 TRUE       
#>  5 ICU      2010-04-23 953526          1 TRUE       
#>  6 Clinical 2017-03-02 976997          1 TRUE       
#>  7 Clinical 2007-10-26 080086          1 TRUE       
#>  8 Clinical 2002-11-18 956065          1 TRUE       
#>  9 Clinical 2006-01-31 612575          1 TRUE       
#> 10 ICU      2002-12-13 285137          1 TRUE       
#> # … with 190 more rows
…
  identical(x, y)
}
#> Including isolates from ICU.
#> [1] TRUE
if (require("dplyr")) {

  # but is_new_episode() has a lot more flexibility than first_isolate(),
  # since you can now group on anything that seems relevant:
  df %>%
    group_by(patient, mo, ward) %>%
    mutate(flag_episode = is_new_episode(date, 365)) %>%
    select(group_vars(.), flag_episode)
}
#> # A tibble: 200 × 4
#> # Groups:   patient, mo, ward [190]
#>    patient mo            ward     flag_episode
#>    <chr>   <mo>          <chr>    <lgl>       
#>  1 E59875  B_STPHY_EPDR  ICU      TRUE        
#>  2 C34072  B_STPHY_CONS  Clinical TRUE        
#>  3 0DBF93  B_STPHY_AURS  Clinical TRUE        
#>  4 2F9056  B_HAFNI_ALVE  ICU      TRUE        
#>  5 953526  B_STPHY_CONS  ICU      TRUE        
#>  6 976997  B_STRPT_PYGN  Clinical TRUE        
#>  7 080086  B_STRPT_GRPB  Clinical TRUE        
#>  8 956065  B_ESCHR_COLI  Clinical TRUE        
#>  9 612575  B_ENTRBC_CLOC Clinical TRUE        
#> 10 285137  B_ESCHR_COLI  ICU      TRUE        
#> # … with 190 more rows
…
