…
a[1] %like% b
#> [1]  TRUE FALSE FALSE
a %like% b[1]
#> [1]  TRUE FALSE FALSE

# \donttest{
# get isolates whose name start with 'Entero' (case-insensitive)
example_isolates[which(mo_name() %like% "^entero"), ]
#> ℹ Using column 'mo' as input for `mo_name()`
#> # A tibble: 106 × 46
#>    date       patient   age gender ward    mo            PEN   OXA   FLC   AMX  
#>    <date>     <chr>   <dbl> <chr>  <chr>   <mo>          <sir> <sir> <sir> <sir>
#>  1 2002-02-21 4FC193     69 M      Clinic… B_ENTRC_FACM    NA    NA    NA    NA 
#>  2 2002-04-08 130252     78 M      ICU     B_ENTRC_FCLS    NA    NA    NA    NA 
#>  3 2002-06-23 798871     82 M      Clinic… B_ENTRC_FCLS    NA    NA    NA    NA 
#>  4 2002-06-23 798871     82 M      Clinic… B_ENTRC_FCLS    NA    NA    NA    NA 
#>  5 2003-04-20 6BC362     62 M      ICU     B_ENTRC         NA    NA    NA    NA 
#>  6 2003-04-21 6BC362     62 M      ICU     B_ENTRC         NA    NA    NA    NA 
#>  7 2003-08-13 F35553     52 M      ICU     B_ENTRBC_CLOC   R     NA    NA    R  
#>  8 2003-08-13 F35553     52 M      ICU     B_ENTRC_FCLS    NA    NA    NA    NA 
#>  9 2003-09-05 F35553     52 M      ICU     B_ENTRC         NA    NA    NA    NA 
#> 10 2003-09-05 F35553     52 M      ICU     B_ENTRBC_CLOC   R     NA    NA    R  
#> # ℹ 96 more rows
#> # ℹ 36 more variables: AMC <sir>, AMP <sir>, TZP <sir>, CZO <sir>, FEP <sir>,
#> #   CXM <sir>, FOX <sir>, CTX <sir>, CAZ <sir>, CRO <sir>, GEN <sir>,
#> #   TOB <sir>, AMK <sir>, KAN <sir>, TMP <sir>, SXT <sir>, NIT <sir>,
#> #   FOS <sir>, LNZ <sir>, CIP <sir>, MFX <sir>, VAN <sir>, TEC <sir>,
#> #   TCY <sir>, TGC <sir>, DOX <sir>, ERY <sir>, CLI <sir>, AZM <sir>,
#> #   IPM <sir>, MEM <sir>, MTR <sir>, CHL <sir>, COL <sir>, MUP <sir>, …

if (require("dplyr")) {
  example_isolates %>%
    filter(mo_name() %like% "^ent")
}
#> ℹ Using column 'mo' as input for `mo_name()`
#> # A tibble: 106 × 46
#>    date       patient   age gender ward    mo            PEN   OXA   FLC   AMX  
#>    <date>     <chr>   <dbl> <chr>  <chr>   <mo>          <sir> <sir> <sir> <sir>
#>  1 2002-02-21 4FC193     69 M      Clinic… B_ENTRC_FACM    NA    NA    NA    NA 
#>  2 2002-04-08 130252     78 M      ICU     B_ENTRC_FCLS    NA    NA    NA    NA 
#>  3 2002-06-23 798871     82 M      Clinic… B_ENTRC_FCLS    NA    NA    NA    NA 
#>  4 2002-06-23 798871     82 M      Clinic… B_ENTRC_FCLS    NA    NA    NA    NA 
#>  5 2003-04-20 6BC362     62 M      ICU     B_ENTRC         NA    NA    NA    NA 
#>  6 2003-04-21 6BC362     62 M      ICU     B_ENTRC         NA    NA    NA    NA 
#>  7 2003-08-13 F35553     52 M      ICU     B_ENTRBC_CLOC   R     NA    NA    R  
#>  8 2003-08-13 F35553     52 M      ICU     B_ENTRC_FCLS    NA    NA    NA    NA 
#>  9 2003-09-05 F35553     52 M      ICU     B_ENTRC         NA    NA    NA    NA 
#> 10 2003-09-05 F35553     52 M      ICU     B_ENTRBC_CLOC   R     NA    NA    R  
#> # ℹ 96 more rows
#> # ℹ 36 more variables: AMC <sir>, AMP <sir>, TZP <sir>, CZO <sir>, FEP <sir>,
#> #   CXM <sir>, FOX <sir>, CTX <sir>, CAZ <sir>, CRO <sir>, GEN <sir>,
#> #   TOB <sir>, AMK <sir>, KAN <sir>, TMP <sir>, SXT <sir>, NIT <sir>,
#> #   FOS <sir>, LNZ <sir>, CIP <sir>, MFX <sir>, VAN <sir>, TEC <sir>,
#> #   TCY <sir>, TGC <sir>, DOX <sir>, ERY <sir>, CLI <sir>, AZM <sir>,
#> #   IPM <sir>, MEM <sir>, MTR <sir>, CHL <sir>, COL <sir>, MUP <sir>, …
…
