…
#> 10  I    S   20  <=2    1  -1.15734233 1.411704178
if (require("dplyr")) {
  # support for groups
  example_isolates %>%
    filter(mo_genus() == "Enterococcus" & mo_species() != "") %>%
    select(mo, TCY, carbapenems()) %>%
    group_by(mo) %>%
    mutate(dist = mean_amr_distance(.)) %>%
    arrange(mo, dist)
}
#> ℹ Using column mo as input for `mo_genus()`
#> ℹ Using column mo as input for `mo_species()`
#> ℹ For `carbapenems()` using columns IPM (imipenem) and MEM (meropenem)
#> ℹ Calculating mean AMR distance based on columns "TCY", "IPM", and "MEM"
#> # A tibble: 63 × 5
#> # Groups:   mo [4]
#>    mo           TCY   IPM   MEM     dist
#>    <mo>         <sir> <sir> <sir>  <dbl>
#>  1 B_ENTRC_AVIM   S     S     NA   0    
#>  2 B_ENTRC_AVIM   S     S     NA   0    
#>  3 B_ENTRC_CSSL   NA    S     NA  NA    
#>  4 B_ENTRC_FACM   S     S     NA  -2.66 
#>  5 B_ENTRC_FACM   S     R     R   -0.423
#>  6 B_ENTRC_FACM   S     R     R   -0.423
#>  7 B_ENTRC_FACM   NA    R     R    0.224
#>  8 B_ENTRC_FACM   NA    R     R    0.224
#>  9 B_ENTRC_FACM   NA    R     R    0.224
#> 10 B_ENTRC_FACM   NA    R     R    0.224
#> # ℹ 53 more rows
```
