…
## See also

[`as.mo()`](https://amr-for-r.org/reference/as.mo.md),
[`mo_property()`](https://amr-for-r.org/reference/mo_property.md),
[microorganisms.groups](https://amr-for-r.org/reference/microorganisms.groups.md),
[microorganisms.codes](https://amr-for-r.org/reference/microorganisms.codes.md),
[intrinsic_resistant](https://amr-for-r.org/reference/intrinsic_resistant.md)

## Examples

``` r
microorganisms
#> # A tibble: 96,982 × 28
#>    mo               fullname     status domain kingdom phylum class order family
#>    <mo>             <chr>        <chr>  <chr>  <chr>   <chr>  <chr> <chr> <chr> 
#>  1 B_GRAMN          (unknown Gr… unkno… Bacte… (unkno… (unkn… (unk… (unk… (unkn…
#>  2 B_GRAMP          (unknown Gr… unkno… Bacte… (unkno… (unkn… (unk… (unk… (unkn…
#>  3 B_ANAER-NEG      (unknown an… unkno… Bacte… (unkno… (unkn… (unk… (unk… (unkn…
#>  4 B_ANAER-POS      (unknown an… unkno… Bacte… (unkno… (unkn… (unk… (unk… (unkn…
#>  5 B_ANAER          (unknown an… unkno… Bacte… (unkno… (unkn… (unk… (unk… (unkn…
#>  6 F_FUNGUS         (unknown fu… unkno… Fungi  Fungi   (unkn… (unk… (unk… (unkn…
#>  7   UNKNOWN        (unknown na… unkno… (unkn… (unkno… (unkn… (unk… (unk… (unkn…
#>  8 P_PROTOZOAN      (unknown pr… unkno… Proto… Protoz… (unkn… (unk… (unk… (unkn…
#>  9 F_YEAST          (unknown ye… unkno… Fungi  Fungi   (unkn… (unk… (unk… (unkn…
#> 10 B_[FAM]_ABDTBCTR Abditibacte… accep… Bacte… Pseudo… Abdit… Abdi… Abdi… Abdit…
#> # ℹ 96,972 more rows
#> # ℹ 19 more variables: genus <chr>, species <chr>, subspecies <chr>,
#> #   rank <chr>, ref <chr>, oxygen_tolerance <chr>, morphology <chr>,
#> #   source <chr>, lpsn <chr>, lpsn_parent <chr>, lpsn_renamed_to <chr>,
#> #   mycobank <chr>, mycobank_parent <chr>, mycobank_renamed_to <chr>,
#> #   gbif <chr>, gbif_parent <chr>, gbif_renamed_to <chr>, prevalence <dbl>,
#> #   snomed <list>
```
