…
Visit [our website for direct download
links](https://amr-for-r.org/articles/datasets.html), or explore the
actual files in [our GitHub
repository](https://github.com/msberends/AMR/tree/main/data-raw/datasets).

## See also

[`as.mo()`](https://amr-for-r.org/reference/as.mo.md)
[microorganisms](https://amr-for-r.org/reference/microorganisms.md)

## Examples

``` r
microorganisms.groups
#> # A tibble: 534 × 4
#>    mo_group       mo           mo_group_name                   mo_name          
#>    <mo>           <mo>         <chr>                           <chr>            
#>  1 B_ACNTB_BMNN-C B_ACNTB_BMNN Acinetobacter baumannii complex Acinetobacter ba…
#>  2 B_ACNTB_BMNN-C B_ACNTB_CLCC Acinetobacter baumannii complex Acinetobacter ca…
#>  3 B_ACNTB_BMNN-C B_ACNTB_LCTC Acinetobacter baumannii complex Acinetobacter di…
#>  4 B_ACNTB_BMNN-C B_ACNTB_NSCM Acinetobacter baumannii complex Acinetobacter no…
#>  5 B_ACNTB_BMNN-C B_ACNTB_PITT Acinetobacter baumannii complex Acinetobacter pi…
#>  6 B_ACNTB_BMNN-C B_ACNTB_SFRT Acinetobacter baumannii complex Acinetobacter se…
#>  7 B_BCTRD_FRGL-C B_BCTRD_FRGL Bacteroides fragilis complex    Bacteroides frag…
#>  8 B_BCTRD_FRGL-C B_BCTRD_OVTS Bacteroides fragilis complex    Bacteroides ovat…
#>  9 B_BCTRD_FRGL-C B_BCTRD_THTT Bacteroides fragilis complex    Bacteroides thet…
#> 10 B_BCTRD_FRGL-C B_PHCCL_VLGT Bacteroides fragilis complex    Bacteroides vulg…
#> # ℹ 524 more rows
…
