Data Set with 48,787 Microorganisms — microorganisms • AMR (for R)
…
    About the Records from LPSN (see Source)

LPSN is the main source for bacteriological taxonomy of this AMR package.

The List of Prokaryotic names with Standing in Nomenclature (LPSN) provides comprehensive information on the nomenclature of prokaryotes. LPSN is a free to use service founded by Jean P. Euzeby in 1997 and later on maintained by Aidan C. Parte.

    See also

    as.mo(), mo_property(), microorganisms.codes, intrinsic_resistant

    Examples

microorganisms
#> # A tibble: 48,787 × 22
#>    mo               fullname      status kingdom phylum class order family genus
#>    <mo>             <chr>         <chr>  <chr>   <chr>  <chr> <chr> <chr>  <chr>
#>  1 F_FUNGUS         (unknown fun… accep… Fungi   (unkn… "(un… "(un… "(unk… "(un…
#>  2 B_GRAMN          (unknown Gra… accep… Bacter… (unkn… "(un… "(un… "(unk… "(un…
#>  3 B_GRAMP          (unknown Gra… accep… Bacter… (unkn… "(un… "(un… "(unk… "(un…
#>  4   UNKNOWN        (unknown nam… accep… (unkno… (unkn… "(un… "(un… "(unk… "(un…
#>  5 F_YEAST          (unknown yea… accep… Fungi   (unkn… "(un… "(un… "(unk… "(un…
#>  6 B_[CLS]_ABDTBCTR Abditibacter… accep… Bacter… Armat… "Abd… ""    ""     ""   
#>  7 B_[FAM]_ABDTBCTR Abditibacter… accep… Bacter… Abdit… "Abd… "Abd… "Abdi… ""   
#>  8 B_[ORD]_ABDTBCTR Abditibacter… accep… Bacter… Abdit… "Abd… "Abd… ""     ""   
#>  9 B_[CLS]_ADTBCTRA Abditibacter… accep… Bacter… Abdit… "Abd… ""    ""     ""   
#> 10 B_[PHL]_ABDTBCTR Abditibacter… accep… Bacter… Abdit… ""    ""    ""     ""   
#> # … with 48,777 more rows, and 13 more variables: species <chr>,
#> #   subspecies <chr>, rank <chr>, ref <chr>, source <chr>, lpsn <chr>,
#> #   lpsn_parent <chr>, lpsn_renamed_to <chr>, gbif <chr>, gbif_parent <chr>,
#> #   gbif_renamed_to <chr>, prevalence <dbl>, snomed <list>
…
