…
Visit [our website for direct download
links](https://amr-for-r.org/articles/datasets.html), or explore the
actual files in [our GitHub
repository](https://github.com/msberends/AMR/tree/main/data-raw/datasets).

## See also

[`as.mo()`](https://amr-for-r.org/reference/as.mo.md)
[microorganisms](https://amr-for-r.org/reference/microorganisms.md)

## Examples

``` r
microorganisms.codes
#> # A tibble: 6,036 × 2
#>    code  mo               
#>    <chr> <mo>             
#>  1 1011  B_GRAMP          
#>  2 1012  B_GRAMP          
#>  3 1013  B_GRAMN          
#>  4 1014  B_GRAMN          
#>  5 1015  F_YEAST          
#>  6 103   B_ESCHR_COLI     
#>  7 104   B_SLMNL_ENTR_ENTR
#>  8 1100  B_STRPT          
#>  9 1101  B_STRPT_VIRI     
#> 10 1102  B_STRPT_HAEM     
#> # ℹ 6,026 more rows
…
