Data Set with 4 971 Common Microorganism Codes — microorganisms.codes • AMR (for R)
…
mo
 ID of the microorganism in the microorganisms data set

    Details

    Like all data sets in this package, this data set is publicly available for download in the following formats: R, MS Excel, Apache Feather, Apache Parquet, SPSS, and Stata. Please visit our website for the download links. The actual files are of course available on our GitHub repository.

    See also

    as.mo() microorganisms

    Examples

microorganisms.codes
#> # A tibble: 4,971 × 2
#>    code  mo               
#>    <chr> <mo>             
#>  1 1011  B_GRAMP          
#>  2 1012  B_GRAMP          
#>  3 1013  B_GRAMN          
#>  4 1014  B_GRAMN          
#>  5 1015  F_YEAST          
#>  6 103   B_ESCHR_COLI     
#>  7 104   B_SLMNL_ENTR_ENTR
#>  8 1100  B_STRPT          
#>  9 1101  B_STRPT_VIRI     
#> 10 1102  B_STRPT_HAEM     
#> # ℹ 4,961 more rows
…
