Get Properties of a Microorganism — mo_property • AMR (for R)
…
mo_is_yeast(c("Candida", "Trichophyton", "Klebsiella"))
#> [1]  TRUE FALSE FALSE

# gram stains and intrinsic resistance can be used as a filter in dplyr verbs
if (require("dplyr")) {
  example_isolates %>%
    filter(mo_is_gram_positive())
    
  example_isolates %>%
    filter(mo_is_intrinsic_resistant(ab = "vanco"))
}
#> ℹ Using column 'mo' as input for `mo_is_gram_positive()`
#> ℹ Using column 'mo' as input for `mo_is_intrinsic_resistant()`
#> # A tibble: 709 × 49
#>    date       hospit…¹ ward_…² ward_…³ ward_…⁴   age gender patie…⁵ mo          
#>    <date>     <fct>    <lgl>   <lgl>   <lgl>   <dbl> <chr>  <chr>   <mo>        
#>  1 2002-01-02 D        FALSE   TRUE    FALSE      65 F      A77334  B_ESCHR_COLI
#>  2 2002-01-03 D        FALSE   TRUE    FALSE      65 F      A77334  B_ESCHR_COLI
#>  3 2002-01-19 D        FALSE   TRUE    FALSE      71 M      738003  B_ESCHR_COLI
#>  4 2002-01-19 D        FALSE   TRUE    FALSE      71 M      738003  B_ESCHR_COLI
#>  5 2002-01-21 D        FALSE   TRUE    FALSE      75 F      462081  B_CTRBC_FRND
#>  6 2002-01-22 B        TRUE    FALSE   FALSE      50 M      F35553  B_PROTS_MRBL
#>  7 2002-01-22 B        TRUE    FALSE   FALSE      50 M      F35553  B_PROTS_MRBL
#>  8 2002-02-05 B        TRUE    FALSE   FALSE      45 F      067927  B_SERRT_MRCS
#>  9 2002-02-05 B        TRUE    FALSE   FALSE      45 F      067927  B_SERRT_MRCS
#> 10 2002-02-05 B        TRUE    FALSE   FALSE      45 F      067927  B_SERRT_MRCS
#> # … with 699 more rows, 40 more variables: PEN <rsi>, OXA <rsi>, FLC <rsi>,
#> #   AMX <rsi>, AMC <rsi>, AMP <rsi>, TZP <rsi>, CZO <rsi>, FEP <rsi>,
#> #   CXM <rsi>, FOX <rsi>, CTX <rsi>, CAZ <rsi>, CRO <rsi>, GEN <rsi>,
#> #   TOB <rsi>, AMK <rsi>, KAN <rsi>, TMP <rsi>, SXT <rsi>, NIT <rsi>,
#> #   FOS <rsi>, LNZ <rsi>, CIP <rsi>, MFX <rsi>, VAN <rsi>, TEC <rsi>,
#> #   TCY <rsi>, TGC <rsi>, DOX <rsi>, ERY <rsi>, CLI <rsi>, AZM <rsi>,
#> #   IPM <rsi>, MEM <rsi>, MTR <rsi>, CHL <rsi>, COL <rsi>, MUP <rsi>, …
…
