Data Set with 500 Isolates - WHONET Example — WHONET • AMR (for R)
…
#> columns to 'sir' with as.sir(), e.g.:
#>   your_data %>% mutate_if(is.rsi, as.sir)
#> Warning: * The 'rsi' class has been replaced with 'sir'. Transform your 'rsi'
#> columns to 'sir' with as.sir(), e.g.:
#>   your_data %>% mutate_if(is.rsi, as.sir)
#> Warning: * The 'rsi' class has been replaced with 'sir'. Transform your 'rsi'
#> columns to 'sir' with as.sir(), e.g.:
#>   your_data %>% mutate_if(is.rsi, as.sir)
#> Warning: * The 'rsi' class has been replaced with 'sir'. Transform your 'rsi'
#> columns to 'sir' with as.sir(), e.g.:
#>   your_data %>% mutate_if(is.rsi, as.sir)
#> Warning: * The 'rsi' class has been replaced with 'sir'. Transform your 'rsi'
#> columns to 'sir' with as.sir(), e.g.:
#>   your_data %>% mutate_if(is.rsi, as.sir)
#> # A tibble: 500 × 53
#>    Identif…¹ Speci…² Organ…³ Country Labor…⁴ Last …⁵ First…⁶ Sex     Age Age c…⁷
#>    <chr>       <int> <chr>   <chr>   <chr>   <chr>   <chr>   <chr> <dbl> <chr>  
#>  1 fe41d7ba…    1748 SPN     Belgium Nation… Abel    B.      F        68 55-74  
#>  2 91f175ec…    1767 eco     The Ne… Nation… Delacr… F.      M        89 75+    
#>  3 cc401505…    1343 eco     The Ne… Nation… Steens… F.      M        85 75+    
#>  4 e864b692…    1894 MAP     Denmark Nation… Beyers… L.      M        62 55-74  
#>  5 3d051fe3…    1739 PVU     Belgium Nation… Hummel  W.      M        86 75+    
#>  6 c80762a0…    1846 103     The Ne… Nation… Eikenb… J.      F        53 25-54  
#>  7 8022d372…    1628 103     Denmark Nation… Leclerc S.      F        77 75+    
#>  8 f3dc5f55…    1493 eco     The Ne… Nation… Delacr… W.      M        53 25-54  
#>  9 15add38f…    1847 eco     France  Nation… Van La… S.      F        63 55-74  
#> 10 fd41248d…    1458 eco     Germany Nation… Moulin  O.      F        75 75+    
#> # … with 490 more rows, 43 more variables: `Date of admission` <date>,
#> #   `Specimen date` <date>, `Specimen type` <chr>,
#> #   `Specimen type (Numeric)` <dbl>, Reason <chr>, `Isolate number` <int>,
#> #   `Organism type` <chr>, Serotype <chr>, `Beta-lactamase` <lgl>, ESBL <lgl>,
#> #   Carbapenemase <lgl>, `MRSA screening test` <lgl>,
#> #   `Inducible clindamycin resistance` <lgl>, Comment <chr>,
#> #   `Date of data entry` <date>, AMP_ND10 <rsi[!]>, AMC_ED20 <rsi[!]>, …
…
