…
For maximum compatibility, we also provide machine-readable,
tab-separated plain text files suitable for use in any software,
including laboratory information systems.

Visit [our website for direct download
links](https://amr-for-r.org/articles/datasets.html), or explore the
actual files in [our GitHub
repository](https://github.com/msberends/AMR/tree/main/data-raw/datasets).

## Examples

``` r
WHONET
#> # A tibble: 500 × 53
#>    `Identification number` `Specimen number` Organism Country         Laboratory
#>    <chr>                               <int> <chr>    <chr>           <chr>     
#>  1 fe41d7bafa                           1748 SPN      Belgium         National …
#>  2 91f175ec37                           1767 eco      The Netherlands National …
#>  3 cc4015056e                           1343 eco      The Netherlands National …
#>  4 e864b692f5                           1894 MAP      Denmark         National …
#>  5 3d051fe345                           1739 PVU      Belgium         National …
#>  6 c80762a08d                           1846 103      The Netherlands National …
#>  7 8022d3727c                           1628 103      Denmark         National …
#>  8 f3dc5f553d                           1493 eco      The Netherlands National …
#>  9 15add38f6c                           1847 eco      France          National …
#> 10 fd41248def                           1458 eco      Germany         National …
#> # ℹ 490 more rows
#> # ℹ 48 more variables: `Last name` <chr>, `First name` <chr>, Sex <chr>,
#> #   Age <dbl>, `Age category` <chr>, `Date of admission` <date>,
#> #   `Specimen date` <date>, `Specimen type` <chr>,
#> #   `Specimen type (Numeric)` <dbl>, Reason <chr>, `Isolate number` <int>,
#> #   `Organism type` <chr>, Serotype <chr>, `Beta-lactamase` <lgl>, ESBL <lgl>,
#> #   Carbapenemase <lgl>, `MRSA screening test` <lgl>, …
```
