Conduct AMR data analysis • AMR (for R)
…
library(dplyr)
library(ggplot2)
library(AMR)

# (if not yet installed, install with:)
# install.packages(c("dplyr", "ggplot2", "AMR"))

The AMR package contains a data set
example_isolates_unclean, which might look data that users
have extracted from their laboratory systems:

example_isolates_unclean
#> # A tibble: 3,000 × 8
#>    patient_id hospital date       bacteria      AMX   AMC   CIP   GEN  
#>    <chr>      <chr>    <date>     <chr>         <chr> <chr> <chr> <chr>
#>  1 J3         A        2012-11-21 E. coli       R     I     S     S    
#>  2 R7         A        2018-04-03 K. pneumoniae R     I     S     S    
#>  3 P3         A        2014-09-19 E. coli       R     S     S     S    
#>  4 P10        A        2015-12-10 E. coli       S     I     S     S    
#>  5 B7         A        2015-03-02 E. coli       S     S     S     S    
#>  6 W3         A        2018-03-31 S. aureus     R     S     R     S    
#>  7 J8         A        2016-06-14 E. coli       R     S     S     S    
#>  8 M3         A        2015-10-25 E. coli       R     S     S     S    
#>  9 J3         A        2019-06-19 E. coli       S     S     S     S    
#> 10 G6         A        2015-04-27 S. aureus     S     S     S     S    
#> # ℹ 2,990 more rows
…
For now, we will just clean the SIR columns in our data using
dplyr:

# method 1, be explicit about the columns:
our_data <- our_data %>%
  mutate_at(vars(AMX:GEN), as.sir)

# method 2, let the AMR package determine the eligible columns
our_data <- our_data %>%
  mutate_if(is_sir_eligible, as.sir)

# result:
our_data
#> # A tibble: 3,000 × 8
#>    patient_id hospital date       bacteria     AMX   AMC   CIP   GEN  
#>    <chr>      <chr>    <date>     <mo>         <sir> <sir> <sir> <sir>
#>  1 J3         A        2012-11-21 B_ESCHR_COLI   R     I     S     S  
#>  2 R7         A        2018-04-03 B_KLBSL_PNMN   R     I     S     S  
#>  3 P3         A        2014-09-19 B_ESCHR_COLI   R     S     S     S  
#>  4 P10        A        2015-12-10 B_ESCHR_COLI   S     I     S     S  
#>  5 B7         A        2015-03-02 B_ESCHR_COLI   S     S     S     S  
#>  6 W3         A        2018-03-31 B_STPHY_AURS   R     S     R     S  
#>  7 J8         A        2016-06-14 B_ESCHR_COLI   R     S     S     S  
#>  8 M3         A        2015-10-25 B_ESCHR_COLI   R     S     S     S  
#>  9 J3         A        2019-06-19 B_ESCHR_COLI   S     S     S     S  
#> 10 G6         A        2015-04-27 B_STPHY_AURS   S     S     S     S  
#> # ℹ 2,990 more rows
…
our_data_1st <- our_data %>%
  filter(first == TRUE)

For future use, the above two syntaxes can be shortened:

our_data_1st <- our_data %>%
  filter_first_isolate()

So we end up with 2 724 isolates for analysis. Now our data looks
like:

our_data_1st
#> # A tibble: 2,724 × 9
#>    patient_id hospital date       bacteria     AMX   AMC   CIP   GEN   first
#>    <chr>      <chr>    <date>     <mo>         <sir> <sir> <sir> <sir> <lgl>
#>  1 J3         A        2012-11-21 B_ESCHR_COLI   R     I     S     S   TRUE 
#>  2 R7         A        2018-04-03 B_KLBSL_PNMN   R     I     S     S   TRUE 
#>  3 P3         A        2014-09-19 B_ESCHR_COLI   R     S     S     S   TRUE 
#>  4 P10        A        2015-12-10 B_ESCHR_COLI   S     I     S     S   TRUE 
#>  5 B7         A        2015-03-02 B_ESCHR_COLI   S     S     S     S   TRUE 
#>  6 W3         A        2018-03-31 B_STPHY_AURS   R     S     R     S   TRUE 
#>  7 M3         A        2015-10-25 B_ESCHR_COLI   R     S     S     S   TRUE 
#>  8 J3         A        2019-06-19 B_ESCHR_COLI   S     S     S     S   TRUE 
#>  9 G6         A        2015-04-27 B_STPHY_AURS   S     S     S     S   TRUE 
#> 10 P4         A        2011-06-21 B_ESCHR_COLI   S     S     S     S   TRUE 
#> # ℹ 2,714 more rows
…
Select and filter with antibiotic selectors

Using so-called antibiotic class selectors, you can select or filter
columns based on the antibiotic class that your antibiotic results are
in:

our_data_1st %>%
  select(date, aminoglycosides())
#> ℹ For `aminoglycosides()` using column GEN
#> (gentamicin)
#> # A tibble: 2,724 × 2
#>    date       GEN  
#>    <date>     <sir>
#>  1 2012-11-21   S  
#>  2 2018-04-03   S  
#>  3 2014-09-19   S  
#>  4 2015-12-10   S  
#>  5 2015-03-02   S  
#>  6 2018-03-31   S  
#>  7 2015-10-25   S  
#>  8 2019-06-19   S  
#>  9 2015-04-27   S  
#> 10 2011-06-21   S  
#> # ℹ 2,714 more rows

our_data_1st %>%
  select(bacteria, betalactams())
#> ℹ For `betalactams()` using columns AMX (amoxicillin) and AMC
#>   (amoxicillin/clavulanic acid)
#> # A tibble: 2,724 × 3
#>    bacteria     AMX   AMC  
#>    <mo>         <sir> <sir>
#>  1 B_ESCHR_COLI   R     I  
#>  2 B_KLBSL_PNMN   R     I  
#>  3 B_ESCHR_COLI   R     S  
#>  4 B_ESCHR_COLI   S     I  
#>  5 B_ESCHR_COLI   S     S  
#>  6 B_STPHY_AURS   R     S  
#>  7 B_ESCHR_COLI   R     S  
#>  8 B_ESCHR_COLI   S     S  
#>  9 B_STPHY_AURS   S     S  
#> 10 B_ESCHR_COLI   S     S  
#> # ℹ 2,714 more rows

our_data_1st %>%
  select(bacteria, where(is.sir))
#> # A tibble: 2,724 × 5
#>    bacteria     AMX   AMC   CIP   GEN  
#>    <mo>         <sir> <sir> <sir> <sir>
#>  1 B_ESCHR_COLI   R     I     S     S  
#>  2 B_KLBSL_PNMN   R     I     S     S  
#>  3 B_ESCHR_COLI   R     S     S     S  
#>  4 B_ESCHR_COLI   S     I     S     S  
#>  5 B_ESCHR_COLI   S     S     S     S  
#>  6 B_STPHY_AURS   R     S     R     S  
#>  7 B_ESCHR_COLI   R     S     S     S  
#>  8 B_ESCHR_COLI   S     S     S     S  
#>  9 B_STPHY_AURS   S     S     S     S  
#> 10 B_ESCHR_COLI   S     S     S     S  
#> # ℹ 2,714 more rows

# filtering using AB selectors is also possible:
our_data_1st %>%
  filter(any(aminoglycosides() == "R"))
#> ℹ For `aminoglycosides()` using column GEN
#> (gentamicin)
#> # A tibble: 981 × 9
#>    patient_id hospital date       bacteria     AMX   AMC   CIP   GEN   first
#>    <chr>      <chr>    <date>     <mo>         <sir> <sir> <sir> <sir> <lgl>
#>  1 J5         A        2017-12-25 B_STRPT_PNMN   R     S     S     R   TRUE 
#>  2 X1         A        2017-07-04 B_STPHY_AURS   R     S     S     R   TRUE 
#>  3 B3         A        2016-07-24 B_ESCHR_COLI   S     S     S     R   TRUE 
#>  4 V7         A        2012-04-03 B_ESCHR_COLI   S     S     S     R   TRUE 
#>  5 C9         A        2017-03-23 B_ESCHR_COLI   S     S     S     R   TRUE 
#>  6 R1         A        2018-06-10 B_STPHY_AURS   S     S     S     R   TRUE 
#>  7 S2         A        2013-07-19 B_STRPT_PNMN   S     S     S     R   TRUE 
#>  8 P5         A        2019-03-09 B_STPHY_AURS   S     S     S     R   TRUE 
#>  9 Q8         A        2019-08-10 B_STPHY_AURS   S     S     S     R   TRUE 
#> 10 K5         A        2013-03-15 B_STRPT_PNMN   S     S     S     R   TRUE 
#> # ℹ 971 more rows

our_data_1st %>%
  filter(all(betalactams() == "R"))
#> ℹ For `betalactams()` using columns AMX (amoxicillin) and AMC
#>   (amoxicillin/clavulanic acid)
#> # A tibble: 462 × 9
#>    patient_id hospital date       bacteria     AMX   AMC   CIP   GEN   first
#>    <chr>      <chr>    <date>     <mo>         <sir> <sir> <sir> <sir> <lgl>
#>  1 M7         A        2013-07-22 B_STRPT_PNMN   R     R     S     S   TRUE 
#>  2 R10        A        2013-12-20 B_STPHY_AURS   R     R     S     S   TRUE 
#>  3 R7         A        2015-10-25 B_STPHY_AURS   R     R     S     S   TRUE 
#>  4 R8         A        2019-10-25 B_STPHY_AURS   R     R     S     S   TRUE 
#>  5 B6         A        2016-11-20 B_ESCHR_COLI   R     R     R     R   TRUE 
#>  6 I7         A        2015-08-19 B_ESCHR_COLI   R     R     S     S   TRUE 
#>  7 N3         A        2014-12-29 B_STRPT_PNMN   R     R     R     S   TRUE 
#>  8 Q2         A        2019-09-22 B_ESCHR_COLI   R     R     S     S   TRUE 
#>  9 X7         A        2011-03-20 B_ESCHR_COLI   R     R     S     R   TRUE 
#> 10 V1         A        2018-08-07 B_STPHY_AURS   R     R     S     S   TRUE 
#> # ℹ 452 more rows

# even works in base R (since R 3.0):
our_data_1st[all(betalactams() == "R"), ]
#> ℹ For `betalactams()` using columns AMX (amoxicillin) and AMC
#>   (amoxicillin/clavulanic acid)
#> # A tibble: 462 × 9
#>    patient_id hospital date       bacteria     AMX   AMC   CIP   GEN   first
#>    <chr>      <chr>    <date>     <mo>         <sir> <sir> <sir> <sir> <lgl>
#>  1 M7         A        2013-07-22 B_STRPT_PNMN   R     R     S     S   TRUE 
#>  2 R10        A        2013-12-20 B_STPHY_AURS   R     R     S     S   TRUE 
#>  3 R7         A        2015-10-25 B_STPHY_AURS   R     R     S     S   TRUE 
#>  4 R8         A        2019-10-25 B_STPHY_AURS   R     R     S     S   TRUE 
#>  5 B6         A        2016-11-20 B_ESCHR_COLI   R     R     R     R   TRUE 
#>  6 I7         A        2015-08-19 B_ESCHR_COLI   R     R     S     S   TRUE 
#>  7 N3         A        2014-12-29 B_STRPT_PNMN   R     R     R     S   TRUE 
#>  8 Q2         A        2019-09-22 B_ESCHR_COLI   R     R     S     S   TRUE 
#>  9 X7         A        2011-03-20 B_ESCHR_COLI   R     R     S     R   TRUE 
#> 10 V1         A        2018-08-07 B_STPHY_AURS   R     R     S     S   TRUE 
#> # ℹ 452 more rows
…
Weighted-Incidence Syndromic Combination Antibiogram
(WISCA) e.g, for the susceptibility of Pseudomonas
aeruginosa to TZP among respiratory specimens (obtained among ICU
patients only) for male patients age >=65 years with heart
failure

In this section, we show how to use the antibiogram()
function to create any of the above antibiogram types. For starters,
this is what the included example_isolates data set looks
like:

example_isolates
#> # A tibble: 2,000 × 46
#>    date       patient   age gender ward     mo           PEN   OXA   FLC   AMX  
#>    <date>     <chr>   <dbl> <chr>  <chr>    <mo>         <sir> <sir> <sir> <sir>
#>  1 2002-01-02 A77334     65 F      Clinical B_ESCHR_COLI   R     NA    NA    NA 
#>  2 2002-01-03 A77334     65 F      Clinical B_ESCHR_COLI   R     NA    NA    NA 
#>  3 2002-01-07 067927     45 F      ICU      B_STPHY_EPDR   R     NA    R     NA 
#>  4 2002-01-07 067927     45 F      ICU      B_STPHY_EPDR   R     NA    R     NA 
#>  5 2002-01-13 067927     45 F      ICU      B_STPHY_EPDR   R     NA    R     NA 
#>  6 2002-01-13 067927     45 F      ICU      B_STPHY_EPDR   R     NA    R     NA 
#>  7 2002-01-14 462729     78 M      Clinical B_STPHY_AURS   R     NA    S     R  
#>  8 2002-01-14 462729     78 M      Clinical B_STPHY_AURS   R     NA    S     R  
#>  9 2002-01-16 067927     45 F      ICU      B_STPHY_EPDR   R     NA    R     NA 
#> 10 2002-01-17 858515     79 F      ICU      B_STPHY_EPDR   R     NA    S     NA 
#> # ℹ 1,990 more rows
#> # ℹ 36 more variables: AMC <sir>, AMP <sir>, TZP <sir>, CZO <sir>, FEP <sir>,
#> #   CXM <sir>, FOX <sir>, CTX <sir>, CAZ <sir>, CRO <sir>, GEN <sir>,
#> #   TOB <sir>, AMK <sir>, KAN <sir>, TMP <sir>, SXT <sir>, NIT <sir>,
#> #   FOS <sir>, LNZ <sir>, CIP <sir>, MFX <sir>, VAN <sir>, TEC <sir>,
#> #   TCY <sir>, TGC <sir>, DOX <sir>, ERY <sir>, CLI <sir>, AZM <sir>,
#> #   IPM <sir>, MEM <sir>, MTR <sir>, CHL <sir>, COL <sir>, MUP <sir>, …
…
Interpreting MIC and Disk Diffusion Values

Minimal inhibitory concentration (MIC) values and disk diffusion
diameters can be interpreted into clinical breakpoints (SIR) using
as.sir(). Here’s an example with randomly generated MIC
values for Klebsiella pneumoniae and ciprofloxacin:

set.seed(123)
mic_values <- random_mic(100)
sir_values <- as.sir(mic_values, mo = "K. pneumoniae", ab = "cipro", guideline = "EUCAST 2024")

my_data <- tibble(MIC = mic_values, SIR = sir_values)
my_data
#> # A tibble: 100 × 2
#>         MIC SIR  
#>       <mic> <sir>
#>  1 <=0.0001   S  
#>  2   0.0160   S  
#>  3 >=8.0000   R  
#>  4   0.0320   S  
#>  5   0.0080   S  
#>  6  64.0000   R  
#>  7   0.0080   S  
#>  8   0.1250   S  
#>  9   0.0320   S  
#> 10   0.0002   S  
#> # ℹ 90 more rows
…
