…
We begin by loading the required libraries and preparing the
`example_isolates` dataset from the `AMR` package.

``` r
# Load required libraries
library(AMR)          # For AMR data analysis
library(tidymodels)   # For machine learning workflows, and data manipulation (dplyr, tidyr, ...)
```

Prepare the data:

``` r
# Your data could look like this:
example_isolates
#> # A tibble: 2,000 × 46
#>    date       patient   age gender ward     mo           PEN   OXA   FLC   AMX  
#>    <date>     <chr>   <dbl> <chr>  <chr>    <mo>         <sir> <sir> <sir> <sir>
#>  1 2002-01-02 A77334     65 F      Clinical B_ESCHR_COLI   R     NA    NA    NA 
#>  2 2002-01-03 A77334     65 F      Clinical B_ESCHR_COLI   R     NA    NA    NA 
#>  3 2002-01-07 067927     45 F      ICU      B_STPHY_EPDR   R     NA    R     NA 
#>  4 2002-01-07 067927     45 F      ICU      B_STPHY_EPDR   R     NA    R     NA 
#>  5 2002-01-13 067927     45 F      ICU      B_STPHY_EPDR   R     NA    R     NA 
#>  6 2002-01-13 067927     45 F      ICU      B_STPHY_EPDR   R     NA    R     NA 
#>  7 2002-01-14 462729     78 M      Clinical B_STPHY_AURS   R     NA    S     R  
#>  8 2002-01-14 462729     78 M      Clinical B_STPHY_AURS   R     NA    S     R  
#>  9 2002-01-16 067927     45 F      ICU      B_STPHY_EPDR   R     NA    R     NA 
#> 10 2002-01-17 858515     79 F      ICU      B_STPHY_EPDR   R     NA    S     NA 
#> # ℹ 1,990 more rows
#> # ℹ 36 more variables: AMC <sir>, AMP <sir>, TZP <sir>, CZO <sir>, FEP <sir>,
#> #   CXM <sir>, FOX <sir>, CTX <sir>, CAZ <sir>, CRO <sir>, GEN <sir>,
#> #   TOB <sir>, AMK <sir>, KAN <sir>, TMP <sir>, SXT <sir>, NIT <sir>,
#> #   FOS <sir>, LNZ <sir>, CIP <sir>, MFX <sir>, VAN <sir>, TEC <sir>,
#> #   TCY <sir>, TGC <sir>, DOX <sir>, ERY <sir>, CLI <sir>, AZM <sir>,
#> #   IPM <sir>, MEM <sir>, MTR <sir>, CHL <sir>, COL <sir>, MUP <sir>, …
…
Next, we evaluate the model on the testing data.

``` r
# Make predictions on the testing set
predictions <- fitted_workflow %>%
  predict(testing_data)                # Generate predictions
probabilities <- fitted_workflow %>%
  predict(testing_data, type = "prob") # Generate probabilities

predictions <- predictions %>%
  bind_cols(probabilities) %>%
  bind_cols(testing_data) # Combine with true labels

predictions
#> # A tibble: 394 × 24
#>    .pred_class   `.pred_Gram-negative` `.pred_Gram-positive` mo        GEN   TOB
#>    <fct>                         <dbl>                 <dbl> <fct>   <int> <int>
#>  1 Gram-positive              1.07e- 1             8.93 e- 1 Gram-p…     5     5
#>  2 Gram-positive              3.17e- 8             1.000e+ 0 Gram-p…     5     1
#>  3 Gram-negative              9.99e- 1             1.42 e- 3 Gram-n…     5     5
#>  4 Gram-positive              2.22e-16             1    e+ 0 Gram-p…     5     5
#>  5 Gram-negative              9.46e- 1             5.42 e- 2 Gram-n…     5     5
#>  6 Gram-positive              1.07e- 1             8.93 e- 1 Gram-p…     5     5
#>  7 Gram-positive              2.22e-16             1    e+ 0 Gram-p…     1     5
#>  8 Gram-positive              2.22e-16             1    e+ 0 Gram-p…     4     4
#>  9 Gram-negative              1   e+ 0             2.22 e-16 Gram-n…     1     1
#> 10 Gram-positive              6.05e-11             1.000e+ 0 Gram-p…     4     4
#> # ℹ 384 more rows
#> # ℹ 18 more variables: AMK <int>, KAN <int>, PEN <int>, OXA <int>, FLC <int>,
#> #   AMX <int>, AMC <int>, AMP <int>, TZP <int>, CZO <int>, FEP <int>,
#> #   CXM <int>, FOX <int>, CTX <int>, CAZ <int>, CRO <int>, IPM <int>, MEM <int>
…
### **Data Preparation**

We use the `esbl_isolates` dataset that comes with the AMR package.

``` r
# Load required libraries
library(AMR)
library(tidymodels)

# View the esbl_isolates data set
esbl_isolates
#> # A tibble: 500 × 19
#>    esbl  genus   AMC   AMP   TZP   CXM   FOX   CTX   CAZ   GEN   TOB   TMP   SXT
#>    <lgl> <chr> <mic> <mic> <mic> <mic> <mic> <mic> <mic> <mic> <mic> <mic> <mic>
#>  1 FALSE Esch…    32    32     4    64    64  8.00  8.00     1     1  16.0    20
#>  2 FALSE Esch…    32    32     4    64    64  4.00  8.00     1     1  16.0   320
#>  3 FALSE Esch…     4     2    64     8     4  8.00  0.12    16    16   0.5    20
#>  4 FALSE Kleb…    32    32    16    64    64  8.00  8.00     1     1   0.5    20
#>  5 FALSE Esch…    32    32     4     4     4  0.25  2.00     1     1  16.0   320
#>  6 FALSE Citr…    32    32    16    64    64 64.00 32.00     1     1   0.5    20
#>  7 FALSE Morg…    32    32     4    64    64 16.00  2.00     1     1   0.5    20
#>  8 FALSE Prot…    16    32     4     1     4  8.00  0.12     1     1  16.0   320
#>  9 FALSE Ente…    32    32     8    64    64 32.00  4.00     1     1   0.5    20
#> 10 FALSE Citr…    32    32    32    64    64  8.00 64.00     1     1  16.0   320
#> # ℹ 490 more rows
#> # ℹ 6 more variables: NIT <mic>, FOS <mic>, CIP <mic>, IPM <mic>, MEM <mic>,
#> #   COL <mic>
…
# Transform dataset
data_time <- example_isolates %>%
  top_n_microorganisms(n = 10) %>% # Filter on the top #10 species
  mutate(year = as.integer(format(date, "%Y")),  # Extract year from date
         gramstain = mo_gramstain(mo)) %>% # Get taxonomic names
  group_by(year, gramstain) %>%
  summarise(across(c(AMX, AMC, CIP), 
                   function(x) resistance(x, minimum = 0),
                   .names = "res_{.col}"), 
            .groups = "drop") %>% 
  filter(!is.na(res_AMX) & !is.na(res_AMC) & !is.na(res_CIP)) # Drop missing values
#> ℹ Using column 'mo' as input for `col_mo`.

data_time
#> # A tibble: 32 × 5
#>     year gramstain     res_AMX res_AMC res_CIP
#>    <int> <chr>           <dbl>   <dbl>   <dbl>
#>  1  2002 Gram-negative   1      0.105   0.0606
#>  2  2002 Gram-positive   0.838  0.182   0.162 
#>  3  2003 Gram-negative   1      0.0714  0     
#>  4  2003 Gram-positive   0.714  0.244   0.154 
#>  5  2004 Gram-negative   0.464  0.0938  0     
#>  6  2004 Gram-positive   0.849  0.299   0.244 
#>  7  2005 Gram-negative   0.412  0.132   0.0588
#>  8  2005 Gram-positive   0.882  0.382   0.154 
#>  9  2006 Gram-negative   0.379  0       0.1   
#> 10  2006 Gram-positive   0.778  0.333   0.353 
#> # ℹ 22 more rows
```
…
