AMR with tidymodels • AMR (for R)
…
Next, we evaluate the model on the testing data.

# Make predictions on the testing set
predictions <- fitted_workflow %>%
  predict(testing_data)                # Generate predictions
probabilities <- fitted_workflow %>%
  predict(testing_data, type = "prob") # Generate probabilities

predictions <- predictions %>%
  bind_cols(probabilities) %>%
  bind_cols(testing_data) # Combine with true labels

predictions
#> # A tibble: 394 × 24
#>    .pred_class   `.pred_Gram-negative` `.pred_Gram-positive` mo        GEN   TOB
#>    <fct>                         <dbl>                 <dbl> <fct>   <int> <int>
#>  1 Gram-positive              1.07e- 1              8.93e- 1 Gram-p…     5     5
#>  2 Gram-positive              3.17e- 8              1.00e+ 0 Gram-p…     5     1
#>  3 Gram-negative              9.99e- 1              1.42e- 3 Gram-n…     5     5
#>  4 Gram-positive              2.22e-16              1   e+ 0 Gram-p…     5     5
#>  5 Gram-negative              9.46e- 1              5.42e- 2 Gram-n…     5     5
#>  6 Gram-positive              1.07e- 1              8.93e- 1 Gram-p…     5     5
#>  7 Gram-positive              2.22e-16              1   e+ 0 Gram-p…     1     5
#>  8 Gram-positive              2.22e-16              1   e+ 0 Gram-p…     4     4
#>  9 Gram-negative              1   e+ 0              2.22e-16 Gram-n…     1     1
#> 10 Gram-positive              6.05e-11              1.00e+ 0 Gram-p…     4     4
#> # ℹ 384 more rows
#> # ℹ 18 more variables: AMK <int>, KAN <int>, PEN <int>, OXA <int>, FLC <int>,
#> #   AMX <int>, AMC <int>, AMP <int>, TZP <int>, CZO <int>, FEP <int>,
#> #   CXM <int>, FOX <int>, CTX <int>, CAZ <int>, CRO <int>, IPM <int>, MEM <int>
…
