How to predict antimicrobial resistance • AMR (for R)
…
The function will look for a date column itself if
col_date is not set.

When running any of these commands, a summary of the regression model
will be printed unless using
resistance_predict(..., info = FALSE).

This text is only a printed summary - the actual result (output) of
the function is a data.frame containing for each year: the
number of observations, the actual observed resistance, the estimated
resistance and the standard error below and above the estimation:

predict_TZP
#> # A tibble: 34 × 7
#>     year  value se_min se_max observations observed estimated
#>  * <dbl>  <dbl>  <dbl>  <dbl>        <int>    <dbl>     <dbl>
#>  1  2002 0.2        NA     NA           15   0.2       0.0562
#>  2  2003 0.0625     NA     NA           32   0.0625    0.0616
#>  3  2004 0.0854     NA     NA           82   0.0854    0.0676
#>  4  2005 0.05       NA     NA           60   0.05      0.0741
#>  5  2006 0.0508     NA     NA           59   0.0508    0.0812
#>  6  2007 0.121      NA     NA           66   0.121     0.0889
#>  7  2008 0.0417     NA     NA           72   0.0417    0.0972
#>  8  2009 0.0164     NA     NA           61   0.0164    0.106 
#>  9  2010 0.0566     NA     NA           53   0.0566    0.116 
#> 10  2011 0.183      NA     NA           93   0.183     0.127 
#> # ℹ 24 more rows
…
