How to import data from SPSS / SAS / Stata • AMR (for R)
…
If you want named variables to be imported as factors so it resembles
SPSS more, use as_factor().

The difference is this:

SPSS_data
# # A tibble: 4,203 x 4
#     v001 sex       status    statusage
#    <dbl> <dbl+lbl> <dbl+lbl>     <dbl>
#  1 10002 1         1              76.6
#  2 10004 0         1              59.1
#  3 10005 1         1              54.5
#  4 10006 1         1              54.1
#  5 10007 1         1              57.7
#  6 10008 1         1              62.8
#  7 10010 0         1              63.7
#  8 10011 1         1              73.1
#  9 10017 1         1              56.7
# 10 10018 0         1              66.6
# # ... with 4,193 more rows

as_factor(SPSS_data)
# # A tibble: 4,203 x 4
#     v001 sex    status statusage
#    <dbl> <fct>  <fct>      <dbl>
#  1 10002 Male   alive       76.6
#  2 10004 Female alive       59.1
#  3 10005 Male   alive       54.5
#  4 10006 Male   alive       54.1
#  5 10007 Male   alive       57.7
#  6 10008 Male   alive       62.8
#  7 10010 Female alive       63.7
#  8 10011 Male   alive       73.1
#  9 10017 Male   alive       56.7
# 10 10018 Female alive       66.6
# # ... with 4,193 more rows
…
