Count isolates — count • AMR
…
# It also supports grouping variables
septic_patients %>%
  select(hospital_id, amox, cipr) %>%
  group_by(hospital_id) %>%
  count_df(translate = FALSE)
#> # A tibble: 24 x 4
#>    Interpretation hospital_id Antibiotic Value
#>    <ord>          <fct>       <chr>      <int>
#>  1 S              A           amox          63
#>  2 S              B           amox         141
#>  3 S              C           amox          59
#>  4 S              D           amox         223
#>  5 I              A           amox           0
#>  6 I              B           amox           1
#>  7 I              C           amox           0
#>  8 I              D           amox           2
#>  9 R              A           amox          87
#> 10 R              B           amox         231
#> # ... with 14 more rows
…
