Calculate resistance of isolates — portion • AMR
…
# It also supports grouping variables
septic_patients %>%
  select(hospital_id, amox, cipr) %>%
  group_by(hospital_id) %>%
  portion_df(translate = FALSE)
#> # A tibble: 24 x 4
#>    Interpretation hospital_id Antibiotic   Value
#>    <ord>          <fct>       <chr>        <dbl>
#>  1 S              A           amox       0.42   
#>  2 S              B           amox       0.378  
#>  3 S              C           amox       0.373  
#>  4 S              D           amox       0.454  
#>  5 I              A           amox       0      
#>  6 I              B           amox       0.00268
#>  7 I              C           amox       0      
#>  8 I              D           amox       0.00407
#>  9 R              A           amox       0.580  
#> 10 R              B           amox       0.619  
#> # ... with 14 more rows
…
